{
	"label": "武器与弹药",
	"entries": [
		{
			"id": "Acid Crossbow Bolt",
			"name": "强酸弩矢",
			"description": "<p>一旦成功命中目标，这支弩矢会造成正常伤害并额外造成1D4点强酸伤害。注意：强酸弩矢不会造成溅射伤害。</p>"
		},
		{
			"id": "Aklys",
			"name": "飞钩杖",
			"description": "<p>飞钩杖是一把钩形的投掷用木棒，带有20尺长的编织皮索；你能以移动动作回收投出的飞钩杖。它的弯钩允许你发动远程绊摔。有些飞钩杖上还凿出了孔洞，使得投掷时发出破空回响。</p>"
		},
		{
			"id": "Amentum",
			"name": "投枪索",
			"description": "<p>投枪索是一条与标准标枪相连的皮带。投掷前将投枪索缠绕在标枪的柄上，再紧握投枪索原地旋转好几周，这样可以大大提升标枪的射程。将标枪与投枪索相连是一个移动动作，而将其缠绕则是一个整轮动作。标枪可以事先被缠好。被投枪索缠好的标枪视为军用武器。</em></p>"
		},
		{
			"id": "Ankus",
			"name": "训象钩",
			"description": "<p><em>以刺激大象而广为人知，这个2~3尺长的木棒有一个矛尖，矛尖下有一个回型倒钩。基本上就是用来训练大象用的，当然可以用作武器玩玩。</em></p>"
		},
		{
			"id": "Armor Spikes",
			"name": "甲刺",
			"description": "<p>你可以将护甲上加装尖刺，利用它们在你成功的进行擒抱战技攻击时造成额外伤害（见军用武器部分的“甲刺”）。甲刺被视为军用武器，如果你不擅长甲刺，你在使用它们进行攻击时会在攻击检定上承受-4减值。你也可以使用甲刺进行一次正常近战（或副手）攻击，并且甲刺视为轻型武器（你无法在进行过一次副手武器攻击后再用甲刺发动额外的攻击，反之亦然）。一套护甲的增强加值无法影响其上安装的甲刺，不过甲刺本身可以作为武器进行单独的附魔增强。</p>"
		},
		{
			"id": "Arrow",
			"name": "箭矢",
			"description": "<p>一支箭矢在作为近战武器时属于轻型临时武器（攻击检定-4），它可以造成与同样型号的匕首相同的伤害（重击倍率×2）。买到的箭放在一个可以容纳20支箭的皮革箭袋里。</p>"
		},
		{
			"id": "Barbazu Beard",
			"name": "Barbazu Beard",
			"description": "<p><em>A barbazu beard is an intimidating helm with a full facemask wrought to look like a snarling barbazu&rsquo;s head. Extending from the chin area of the face guard is a razor-sharp blade much like an actual barbazu&rsquo;s beard, usually 8 inches long but sometimes longer.</em></p>\n<p>A barbazu beard can be used as an off-hand weapon that requires no hands to use; thus, a warrior could combine use of a barbazu beard with a two-handed weapon.</p>\n<p>Attacking with a barbazu beard provokes an attack of opportunity. Because it is so close to the wearer&rsquo;s face, using a barbazu beard against creatures harmful to touch (such as fire elementals and acidic oozes) has the same risks as using a natural weapon or unarmed strike against these creatures.</p>"
		},
		{
			"id": "Barbed Arrow",
			"name": "倒钩箭",
			"description": "<p>倒钩箭的尖端像一个鱼叉。当将倒钩箭尾部连上丝绳然后发射，该次攻击的射程增量会降低为30尺，但此次攻击时武器获得擒抱武器特殊属性。倒钩箭存在弩矢版本。</p>"
		},
		{
			"id": "Barbed Bolt",
			"name": "倒钩箭",
			"description": "<p>倒钩箭的尖端像一个鱼叉。当将倒钩箭尾部连上丝绳然后发射，该次攻击的射程增量会降低为30尺，但此次攻击时武器获得擒抱武器特殊属性。倒钩箭存在弩矢版本。</p>"
		},
		{
			"id": "Bardiche",
			"name": "新月战斧",
			"description": "<p>这件长兵器的新月形斧刃通过两点连接在握柄上：斧刃正中连接在握柄前端的嵌座里，斧刃下侧则连接在握柄的另一处接点。斧刃通常会格外地长，有时甚至会与柄等长。你持用新月战斧时，为这件武器抵抗破武战技的CMD+2。</p>"
		},
		{
			"id": "Bastard Sword",
			"name": "重剑",
			"description": "<p>重剑长约4尺，使得它难以在经受特殊训练之前单手使用；因此这是一件异种武器。你能在双手持用重剑的情况下将其视为军用武器。</p>"
		},
		{
			"id": "Battle Aspergillum",
			"name": "圣水花洒",
			"description": "<p>以神职者常用来泼洒圣水的工具为名，这把轻锤前端中空、并有连通其中空间的活塞。武器前端会在锤击生物时从小孔中喷出圣水；会被圣水伤害到的生物将因此而在武器通常效果之外，受到1点额外伤害（非魔法的圣水花洒能以此方式对虚体生物造成圣水伤害，尽管武器本身无法伤害虚体）。5次命中之后，圣水耗尽并需要灌装。灌装圣水是一个标准动作，并会引发藉机攻击（如同饮药）。灌装好的圣水花洒通常竖直持握，避免圣水因武器颤动而漏出。</p>"
		},
		{
			"id": "Battle Axe",
			"name": "战斧",
			"description": "<p>这把斧子的握柄足够长，你能以单手或双手持握它。斧刃可能开在一侧、也有可能双刃，而锋刃的形状也从半月形到伐木斧一般的方棱形不等。木制握柄可能会以金属套箍加以保护。</p>"
		},
		{
			"id": "Battle Poi",
			"name": "Battle Poi",
			"description": "<p>The weight of the poi is insufficient to deal physical damage, but the burning fuel deals fire damage. If you are proficient in battle poi, you are treated as if you have the Two-Weapon Fighting feat for the purposes of making poi attacks.</p>\n<p>Poi can be extinguished by spending a full round action smothering them in sand or submerging them in water.</p>"
		},
		{
			"id": "Bayonet",
			"name": "刺刀",
			"description": "<p>刺刀是被设计用来装在弩槽和枪口上的近战武器。它允许你用这些武器进行近战攻击，但暂时无法将其作为远程武器。安装和拆卸刺刀是一个移动动作。</em></p>"
		},
		{
			"id": "Bec de Corbin",
			"name": "鸦啄战锤",
			"description": "<p>鸦啄战锤是一件很像苜蓿战锤的长兵器，不过锤头略钝、而矛尖则牢固并弯曲。你主要以矛尖来攻击。你持用鸦啄战锤时，击破中型和重型盔甲的破武战技检定+2。</p>"
		},
		{
			"id": "Bill",
			"name": "戈刀",
			"description": "<p>这件长兵器的锋刃呈弧形或钩状，并与其背部的长刺紧紧相贴。尖刺主要用来格挡。这件武器在你防御式战斗或完全防御时给予你AC+1盾牌加值。被戈刀击中的骑乘对像用以维持骑乘的骑术检定-1。</em></p>"
		},
		{
			"id": "Blade Boot",
			"name": "刀锋靴",
			"description": "<p><em>刀锋靴配有一把弹簧安装的刀，当脚趾按压的正确组合触发时会弹出。</em></p>\n<p>你可以将刀锋靴作为副手武器。弹出刀刃是一个迅速的动作；重新填装它是一个全回合动作。当刀刃弹出时，你将正常地形视为困难地形，无法在困难地形上移动。</p>"
		},
		{
			"id": "Bladed Scarf",
			"name": "刃巾",
			"description": "<p><em>The skill required in using bladed scarves effectively and not revealing their deadly nature makes them exotic weapons.</em></p>\n<p>If you are proficient with a bladed scarf, you deal 1d4 points of slashing damage to any creature that makes a successful&nbsp;<a href=\"https://www.d20pfsrd.com/gamemastering/combat#TOC-Grapple\">grapple</a>&nbsp;check against you while you wield the scarf.</p>\n<p>You can use the&nbsp;<a href=\"https://www.d20pfsrd.com/feats/combat-feats/weapon-finesse-combat\">Weapon Finesse</a>&nbsp;feat to apply your&nbsp;<a href=\"https://www.d20pfsrd.com/basics-ability-scores/ability-scores#TOC-Dexterity-Dex-\">Dexterity</a>&nbsp;modifier instead of your&nbsp;<a href=\"https://www.d20pfsrd.com/basics-ability-scores/ability-scores#TOC-Strength-Str-\">Strength</a>&nbsp;modifier on&nbsp;<a href=\"https://www.d20pfsrd.com/gamemastering/combat#TOC-Attack-Roll\">attack rolls</a>&nbsp;with a bladed scarf sized for you, even though it isn’t a light weapon.</p>"
		},
		{
			"id": "Bleeding Arrow",
			"name": "流血箭",
			"description": "<p><strong>Benefit</strong>: 流血箭击中生物时会造成正常伤害。此后每回合，该生物因流血造成1点伤害，直到通过DC 10医疗检定或应用治疗法术或其他治疗魔法停止流血为止。重击不会增加流血伤害。对重击免疫的生物（如植物和建筑）对这种武器造成的流血伤害免疫。</p>"
		},
		{
			"id": "Blowgun",
			"name": "吹箭",
			"description": "<p>吹箭通常用来在远距离传递弱化敌人（而非致命）的毒药。它们发射时几乎无声。合适的毒药搭配请参见毒药相关信息。</em></p>"
		},
		{
			"id": "Blowgun Dart",
			"name": "吹箭",
			"description": "<p>这只轻薄的飞镖由硬木制成、底端有协助飞行稳定性的羽毛等物，被吹箭筒作为弹药使用。吹镖发射前从反面装填进吹箭筒。</p>"
		},
		{
			"id": "Blunt Arrow",
			"name": "钝箭",
			"description": "<p>这只箭矢的先端是造成钝击伤害而非穿刺的圆木。射手能够使用钝箭造成非致命伤害（依然由于以致命武器造成非致命伤害而使攻击检定承受-4减值）</p>"
		},
		{
			"id": "Boar Spear",
			"name": "猎猪矛",
			"description": "<p>这只矛装有十字横枝，防护敌人的突击。若你以准备动作迎击对方冲锋并且命中，你在下轮前针对该目标的AC获得+2盾牌加值。</p>"
		},
		{
			"id": "Boarding Axe",
			"name": "登舰斧",
			"description": "<p>登舰斧和手斧类似，但其别致的斧尖让该武器可以造成挥砍或穿刺伤害。手持登舰斧时，其能在攀登木质表面或者其他可刺穿表面——比如冰块——的攀爬检定上提供+2环境加值</p>"
		},
		{
			"id": "Boarding Gaff",
			"name": "登船叉",
			"description": "<p>登船叉，又称钩叉，是一根末端有着刺鱼用尖钩的长杆。海盗通常会在其分叉的末端加上额外的沉重钩子以帮助攀舰，该武器也因此得名。此外，登船叉也可以用来捕鱼。</p>"
		},
		{
			"id": "Boarding Pike",
			"name": "登舰矛",
			"description": "<p><em>登舰矛是一根8英尺长的杆子，顶端有一英尺长的锥形金属尖端。登舰矛看起来很像长梨，但金属长矛设计成融入木柄，不会留下凹槽、项圈或钉子，这些都会因为浸泡海水并导致生锈。登舰矛主要用于防御，击退登舰的敌人。这些登舰矛被放在桅杆周围的支架上，因此水手们可以迅速抓住长矛，并将它们靠在舷墙上以击退登舰者。</em></p>"
		},
		{
			"id": "Bola",
			"name": "套牛绳",
			"description": "<p>套牛绳是用细索连结的一对木、石或铁质重物。你能回旋并投掷此武器，向一名对手发动远程绊摔攻击。你不会在使用套牛绳绊摔时遭到反摔。</p>"
		},
		{
			"id": "Boomerang",
			"name": "回力镖",
			"description": "<p>回力镖原本是一件狩猎工具，但是它非凡的投掷武器特性被用在战场上也并不奇怪。一把回力镖由扁平的木材制成，具有长长的握柄和弯曲的弧线，弧线收紧处则削得相当锋利。狩猎用的回力镖并不会飞回来。【译注：这种武器应该是命中后停留、未命中则飞回来，但此处描述语焉不详，加上具体状况复杂多变，请GM自行定夺。】</p>"
		},
		{
			"id": "Brass Knife",
			"name": "黄铜刀",
			"description": "<p>海盗经常携带黄铜刀在船上工作，尽管黄铜不像钢那样锋利，但它不像钢那样容易生锈。在紧要关头，海盗可以用他的黄铜刀作为武器。不过，它们大多用于割断绳索、清洁鱼和其他杂活。</p>"
		},
		{
			"id": "Brass Knuckles",
			"name": "黄铜指虎",
			"description": "<p>这件武器紧贴指关节，允许你通过徒手攻击造成致命伤害。你能用装备着黄铜指虎的手抓握但非持用一件武器或其他物品。若成功通过DC为“10+法术环级”的专注检定，你能用装备着黄铜指虎的手来完成施法所需的姿势成分。武僧擅长黄铜指虎。黄铜指虎无法被卸武。</p>"
		},
		{
			"id": "Broken-Back Seax",
			"name": "Broken-Back Seax",
			"description": "<p>Seaxes are straight, single-edged blades. The broken-back seax is the size of a short sword, and has a broad blade with a distinctive trapezoidal shape. If your&nbsp;<a href=\"https://www.d20pfsrd.com/basics-ability-scores/ability-scores#TOC-Strength-Str-\">Strength</a>&nbsp;score is less than 15, you take a –2 penalty on&nbsp;<a href=\"https://www.d20pfsrd.com/gamemastering/combat#TOC-Attack-Roll\">attack rolls</a>&nbsp;with a broken-back seax, as you’re unable to put enough force into the blows to land them effectively.</p>"
		},
		{
			"id": "Brutal Bola",
			"name": "残暴套牛索",
			"description": "<p>这个套牛索与标准套牛索相同，但是它可以造成致命伤害，还而不是非致命伤害。</p>"
		},
		{
			"id": "Butchering Axe",
			"name": "屠戮斧",
			"description": "<p>屠戮斧出自贝尔克泽恩的兽人铁匠之手。这柄斧头有着一个特大号的斧首，上面点缀有尖刺。同时其斧柄粗长而厚实，勉强能让其重量分布能保持平衡。如果使用者的力量低于19（如果是小体型及以下的尺寸则是17），则他将无法操控这柄有着让人望而生畏尺寸的武器，并在攻击时会受到-2减值。</p>"
		},
		{
			"id": "Butterfly Knife",
			"name": "Butterfly Knife",
			"description": "<p><em>A butterfly knife has a blade concealed between two halves of the handle that can be brought to bear quickly.</em></p>\n<p>If you are proficient with the butterfly knife (or have the&nbsp;<a href=\"https://www.d20pfsrd.com/feats/combat-feats/quick-draw-combat\">Quick Draw</a>&nbsp;feat) and are holding it in your hand, you may open it as a&nbsp;<a href=\"https://www.d20pfsrd.com/gamemastering/combat#TOC-Free-Actions\">free action</a>; a nonproficient user must spend a&nbsp;<a href=\"https://www.d20pfsrd.com/gamemastering/combat#TOC-Move-Actions\">move action</a>&nbsp;to open it. Otherwise, treat this weapon as a dagger. When it’s closed, you gain a +2 bonus on&nbsp;<a href=\"https://www.d20pfsrd.com/skills/sleight-of-hand\">Sleight of Hand</a>&nbsp;checks made to conceal it on your body.</p>"
		},
		{
			"id": "Cat-o'-Nine-Tails",
			"name": "九尾鞭",
			"description": "<p>这条短鞭是用九股3英尺长的皮绳系拧而成。九尾鞭无法对任何有着+1及以上护甲ac或是+3及以上天生护甲ac的生物造成伤害。</p>"
		},
		{
			"id": "Cestus",
			"name": "拳套",
			"description": "<p>拳套是包裹着持用者前臂直至中指的皮制或粗布手套。这件近身格斗武器用指部附近的金属片加以强化，并常在手背和腕侧加装凶恶的棘刺。装备拳套时你视为有武装【译注：即不会因攻击而引发藉机攻击】，徒手打击造成致命伤害。若你擅长拳套，还能让徒手打击造成钝击或穿刺伤害。武僧擅长拳套。装备拳套时你的手指大部分裸露，因此能持用其他武器或拿取物品，但拳套对你手指灵活性的限制使你用这只手完成各项依赖于准确性的工作时检定-2（譬如开锁）。拳套无法被卸武。</em></p>"
		},
		{
			"id": "Chain-Hammer",
			"name": "双子流星锤",
			"description": "<p>这一对锤子通过一条松散的锁链连接在一起。两枚锤子的平衡性都颇为良好，使其能在近战时一同使用。此外，锁链的长度也能让使用者可以在短距离内把其中一枚锤子投掷出去，然后通过锁链将其拉拽回来。拉动链条回收丢出去的锤子是一个移动动作。双子流星锤其能投掷的最大距离是10英尺。矮人游侠很喜欢使用这种武器，他们通常会在手上戴上带锁铁手套以确保至少有一个锤子能牢牢地握在手中。</p>"
		},
		{
			"id": "Chakram",
			"name": "飞轮",
			"description": "<p>飞轮是一件简单、雅致、极为便携的投掷武器。它是一块扁平的环形“铁饼”，周围开刃。你可以持用飞轮作为近战武器，但它的设计并非为此服务；因此你的攻击检定将受-1减值，还要通过DC15的反射豁免以避免割伤自己（伤害减半，无力量修正）。你在装备重甲时无需进行此豁免。</em></p>"
		},
		{
			"id": "Claw Blades",
			"name": "爪刃",
			"description": "<p><em>这种特殊的刀刃只有拥有【猫爪】种族特性的猫族才能使用。一套5件，按在穿戴者的一只手爪上。</em></p>\n<p>这种刀刃基於穿戴者用爪的攻击骰上获得+1增强加值，并且将武器类型由天生武器改变为轻型挥砍武器。拥有【猫爪】种族特性的猫族擅长这种武器。爪刃可以像正常武器一般附魔，计算成本时将一只手爪上的5枚刀刃视为一组计算。</p>"
		},
		{
			"id": "Club",
			"name": "木棒",
			"description": "<p>这件武器通常只是削尖了的木头，有时会在上面镶嵌钉子。</p>"
		},
		{
			"id": "Collapsible Kumade",
			"name": "折叠熊手",
			"description": "<p>它跟熊手一样，但是竹制把手中心有一根绷紧的绳索相连。释放绳索是一个会引发藉机攻击的标准动作，会立刻将熊手折叠成一捆，可以方便的塞进背包。将折叠好的熊手重组需要一个会引发藉机攻击的全回合动作。</p>"
		},
		{
			"id": "Combat Scabbard",
			"name": "战斗刀鞘",
			"description": "<p>这个刀鞘的边缘是一把锋利的刀刃，你可以将它当做武器。</p>"
		},
		{
			"id": "Composite Longbow",
			"name": "复合长弓",
			"description": "<p>无论其型号大小，你至少需要两只手来使用一把弓。你可以在骑乘中使用复合长弓。所有的复合长弓都以特定的力量级别（即持用者必须达到每把弓的最小力量修正要求才能熟练使用）来制造。如果你的力量修正小于某把复合长弓的力量级别，你将无法自如使用并在攻击检定中承受-2减值。熟练使用一把复合长弓一般需要+0及以上的力量修正。一把复合长弓能以很高的力量级别来制造，使得力量高于一般水准的持用者发挥优势；该特性允许你将力量修正加至伤害检定，最高不超过这把弓的力量级别。每1点力量加值会使弓的价格增加100gp。若你的力量修正为负值，你持用复合长弓的伤害检定亦会受其影响。复合长弓发射箭矢。在决定“武器擅长”及类似专长时，复合长弓被视为长弓。</p>"
		},
		{
			"id": "Composite Shortbow",
			"name": "复合短弓",
			"description": "<p>无论其型号大小，你至少需要两只手来使用一把弓。你可以在骑乘中使用复合短弓。所有的复合短弓都以特定的力量级别（即持用者必须达到每把弓的最小力量修正要求才能熟练使用）来制造。如果你的力量修正小于某把复合短弓的力量级别，你将无法自如使用并在攻击检定中承受-2减值。熟练使用一把复合短弓一般需要+0及以上的力量修正。一把复合短弓能以很高的力量级别来制造，使得力量高于一般水准的持用者发挥优势；该特性允许你将力量修正加至伤害检定，最高不超过这把弓的力量级别。每1点力量加值会使弓的价格增加75gp。若你的力量修正为负值，你持用复合短弓的伤害检定亦会受其影响。复合短弓发射箭矢。在决定“武器擅长”及类似专长时，复合短弓被视为短弓。</p>"
		},
		{
			"id": "Crook",
			"name": "牧钩",
			"description": "<p><em>这个顶部弯成勾型的木杆一般作为牧民的工具存在。</em></p>\n<p>使用牧钩可以在双手未空出情形下对威胁的单位进行擒抱战技检定时，忽略一般将要承受的-4罚值。</p>"
		},
		{
			"id": "Crossbow Bolt",
			"name": "弩矢",
			"description": "<p>一支弩矢在作为近战武器时属于轻型临时武器，它可以造成与同样型号的匕首相同的伤害（重击倍率×2）。买到的弩矢放在一个可以容纳10支弩矢（连射弩是5支）的木制小匣里。</p>"
		},
		{
			"id": "Cutlass",
			"name": "水兵刀",
			"description": "<p>水手船员们很喜欢用这种有着弯弧刀身的短刀进行白刃战，水兵刀在判断任何适用于弯刀的效果时都视作是弯刀</p>"
		},
		{
			"id": "Dagger",
			"name": "匕首",
			"description": "<p>匕首是一把战斗用小刀。它的锋刃长不及1尺，可曲可直，可单刃可双刃。匕首的设计种类极广，并可能有多种名称（譬如用来戳刺的“刺刃”）。隐藏一把匕首在身上的巧手检定+2。</p>"
		},
		{
			"id": "Dart",
			"name": "飞镖",
			"description": "<p>这件具有配重的投掷武器比箭矢大，尺寸和射程则较标枪为短。多数飞镖为木柄铁尖。</em></p>"
		},
		{
			"id": "Deer Horn Knife",
			"name": "鹿角刃（鸳鸯钺）",
			"description": "<p><em>这个扁平的金属武器看起来就像两枚月牙刃叠放在一起焊接好，中间留出了持握的空间。武器的四个刃尖可以各有所长。中心一端包裹起来用於持握，另一端则制作厚实些用於防御。鹿角刃基本上成对使用。</em></p>"
		},
		{
			"id": "Dire Flail",
			"name": "双头链枷",
			"description": "<p>双头链枷在长握柄的两端各有一只布满尖刺的铁球、与握柄以锁链相接。这件武器触及虽短、但威力拔群，并通常结合回旋动量来挥舞使用。双头链枷的持用者必须足够强壮，才能有效使用并避免脱手。</p>"
		},
		{
			"id": "Distance Arrow",
			"name": "Distance Arrow",
			"description": "<p>Used tactically for long-range attacks on troops, these arrows are fitted with heavy iron heads. While these heads help them travel great distances, they make the arrows less effective at dealing damage.</p>\n<p><strong>Benefit</strong>: Iron-tipped distance arrows increase their bow’s range increment by 10 feet but take a –1 penalty on damage dealt per range increment (minimum 1 point of damage). They are sold in leather quivers in quantities of 20.</p>"
		},
		{
			"id": "Dogslicer",
			"name": "屠狗刃",
			"description": "<p>这把短弯刀是地精首创的，它们在刀身上钻了无数小洞来减轻武器重量。屠狗刃的武器型号多为小型。</p>"
		},
		{
			"id": "Double Crossbow",
			"name": "双发弩",
			"description": "<p>这件重型武器一次扣下扳机可以击发两只铁簇弩矢。由于其型号和重量惊人，你在擅长它的情况下攻击检定也要受到-4减值，若不擅长则为-8。若攻击命中，目标将会受到两只弩矢的伤害。重击、偷袭和其他基于精准的伤害仅会应用于第一只弩矢。装填一支弩矢是一个标准动作；“快速装填”专长能将其减至一个移动动作。“十字弓熟稔（Crossbow Mastery, APG）”专长允许你通过一个移动动作为其装填两只弩矢。双发弩发射弩矢。</p>"
		},
		{
			"id": "Double Sling",
			"name": "双头投石索",
			"description": "<p><em>第一眼看上去，这是个像指挥棒一样的棍棍，两头各栓着一根晃来晃去的投石索。这种武器需要特殊的技巧，或半身人的灵巧，才能完全发挥功用。你可以如同普通投石索一般使用它，或使用其另一头，每轮额外做一次远程攻击。当你同时使用两端的投石索战斗时，你如同使用两把武器战斗一般受到减值，双武器战斗专长如常减少减值。为双头投石索的一端装弹是移动动作（如同普通投石索），所以除非你有特殊的快速装弹技巧（比如Ammo Drop专长），你无法连续每轮都进行多次攻击。</p>\n<p>你可以使用普通的石头作为弹药装填进来，但石头无法和弹药相比。因此只会造成小一级体型的武器的伤害，并且你的攻击检定-1。</p>"
		},
		{
			"id": "Double Spear",
			"name": "双头矛",
			"description": "<p>这个又长又重的矛，它的两端个有一个枪尖，可以作为双武器使用。</p>"
		},
		{
			"id": "Drow Poison Crossbow Bolt",
			"name": "卓尔毒矢",
			"description": "<p>任何被卓尔毒矢击中的目标必须通过DC13的强韧豁免否则会被卓尔毒素影响。使用卓尔毒矢不会令使用者有中毒风险。缺陷：这支弩矢的奇特构造会影响弩矢的准度。使用卓尔毒矢时，距离减值翻倍。</p>"
		},
		{
			"id": "Drow Razor",
			"name": "卓尔锋刃",
			"description": "<p>卓尔锋刃就是为了迅猛的攻击以及疾速的挥砍而诞生，其狭长刀身的刃部锋利异常。卓尔的游荡剑客和刺客尤其喜欢这种武器。如果通过卓尔锋刃成功进行一次重击或是偷袭，则造成的伤害会额外增加2点，该伤害属于精准伤害且无法因为重击而翻倍。有着卓尔的武器熟悉种族特性的角色将卓尔锋刃视作军用武器。</p>"
		},
		{
			"id": "Dueling Dagger",
			"name": "决斗匕首",
			"description": "<p>这柄匕首一般用副手握持以格挡攻击。手持决斗匕首使用防御式战斗或者寓守于攻时，使用者获得的AC加值额外增加1。这项加值即使在使用者没有以决斗匕首进行攻击时也能生效。如果使用者不擅长决斗匕首，则其在手中则如同普通的匕首一样，不会享受任何特殊的好处。任何适用于匕首的效果都适用于决斗匕首。</p>"
		},
		{
			"id": "Dueling Sword",
			"name": "决斗剑",
			"description": "<p><em>这柄稍微弯曲的剑只有3英尺多长。</em></p>\n<p>An&nbsp;<a href=\"https://www.d20pfsrd.com/equipment/weapons/weapon-descriptions/sword-dueling\">dueling sword</a>&nbsp;can be used as a martial weapon (in which case it functions as a&nbsp;<a href=\"https://www.d20pfsrd.com/equipment/weapons/weapon-descriptions/longsword\">longsword</a>), but if you have the feat&nbsp;<a href=\"https://www.d20pfsrd.com/feats/combat-feats/exotic-weapon-proficiency/\">Exotic Weapon Proficiency</a>&nbsp;(<a href=\"https://www.d20pfsrd.com/equipment/weapons/weapon-descriptions/sword-dueling\">dueling sword</a>), you can use the&nbsp;<a href=\"https://www.d20pfsrd.com/feats/combat-feats/weapon-finesse-combat\">Weapon Finesse</a>&nbsp;feat to apply your&nbsp;<a href=\"https://www.d20pfsrd.com/basics-ability-scores/ability-scores#TOC-Dexterity-Dex-\">Dexterity</a>&nbsp;modifier instead of your&nbsp;<a href=\"https://www.d20pfsrd.com/basics-ability-scores/ability-scores#TOC-Strength-Str-\">Strength</a>&nbsp;modifier to&nbsp;<a href=\"https://www.d20pfsrd.com/gamemastering/combat#TOC-Attack-Roll\">attack rolls</a>&nbsp;with a&nbsp;<a href=\"https://www.d20pfsrd.com/equipment/weapons/weapon-descriptions/sword-dueling\">dueling sword</a>&nbsp;sized for you, even though it isn’t a light weapon. You can also wield a&nbsp;<a href=\"https://www.d20pfsrd.com/equipment/weapons/weapon-descriptions/sword-dueling\">dueling sword</a>&nbsp;in two hands to apply 1-1/2 times your&nbsp;<a href=\"https://www.d20pfsrd.com/basics-ability-scores/ability-scores#TOC-Strength-Str-\">Strength</a>&nbsp;bonus to damage rolls.</p>"
		},
		{
			"id": "Durable Arrow",
			"name": "耐用箭",
			"description": "<p><strong>优点</strong>: 无论是否命中目标，耐用箭都不会因正常使用而折断；除非箭头丢失，否则弓箭手可以一次又一次地取回并重复使用耐用箭头。耐用的箭可以通过其他方式折断（如故意折断、击中火元素等）。</p>\n<p><strong>缺点</strong>: 如果使用附魔制作（如毒药），魔法只能持续使用一次箭，但非魔法箭仍然可以重复使用或再次注入魔法。</p>"
		},
		{
			"id": "Dwarven Boulder Helmet",
			"name": "Dwarven Boulder Helmet",
			"description": "<p>This heavy, reinforced helmet can be used to make melee attacks. The wearer may use the helmet when attempting&nbsp;<a href=\"https://www.d20pfsrd.com/gamemastering/combat#TOC-Bull-Rush\">bull rush</a>&nbsp;maneuvers, granting a +2&nbsp;<a href=\"https://www.d20pfsrd.com/basics-ability-scores/glossary#TOC-Circumstance-Bonus\">circumstance bonus</a>&nbsp;on the check, but after completing the maneuver (whether successful or not), the wearer is&nbsp;<a href=\"https://www.d20pfsrd.com/gamemastering/conditions#TOC-Staggered\">staggered</a>&nbsp;until the end of his next turn.</p>\n<p>In addition, a dwarven boulder helmet grants a +2&nbsp;<a href=\"https://www.d20pfsrd.com/basics-ability-scores/glossary#TOC-Circumstance-Bonus\">circumstance bonus</a>&nbsp;to the wearer’s AC against&nbsp;<a href=\"https://www.d20pfsrd.com/gamemastering/combat#TOC-Critical-Hits\">critical hit</a>&nbsp;confirmation rolls. A dwarven boulder helmet can be enchanted as a weapon (not as&nbsp;<a href=\"https://www.d20pfsrd.com/basics-ability-scores/glossary#TOC-Armor-Bonus\">armor</a>, despite providing some protection).</p>\n<p>A dwarven boulder helmet adds 20% to the wearer’s arcane spell failure chance. It occupies the head slot and is made of metal, not stone, meaning that it can be crafted from unusual materials as a metal weapon.</p>"
		},
		{
			"id": "Dwarven Chain-Flail",
			"name": "Dwarven Chain-Flail",
			"description": "<p><em>This 10-foot-long chain is weighted at the end by a ball of solid iron the size of a large fist.</em></p>\n<p>By adjusting the slack of the chain, the weapon can be used either with or without reach. Changing between using it as a normal weapon and a reach weapon is a&nbsp;<a href=\"https://www.d20pfsrd.com/gamemastering/combat#TOC-Move-Actions\">move action</a>.</p>"
		},
		{
			"id": "Dwarven Double Waraxe",
			"name": "Dwarven Double Waraxe",
			"description": "<p><em>This hefty waraxe is similar to the common&nbsp;<a href=\"https://www.d20pfsrd.com/equipment/weapons/weapon-descriptions/waraxe-dwarven\">dwarven waraxe</a>, but its recurved blade spans forward and back from its head like a deadly butterfly.</em></p>\n<p>A dwarven double waraxe grants a +1 bonus on all&nbsp;<a href=\"https://www.d20pfsrd.com/gamemastering/combat#TOC-Attack-Roll\">attack rolls</a>&nbsp;after the first when using&nbsp;<a href=\"https://www.d20pfsrd.com/feats/combat-feats/cleave-combat\">Cleave</a>&nbsp;or&nbsp;<a href=\"https://www.d20pfsrd.com/feats/combat-feats/great-cleave-combat\">Great Cleave</a>.</p>"
		},
		{
			"id": "Dwarven Giant-Sticker",
			"name": "Dwarven Giant-Sticker",
			"description": "<p><em>This heavy bladed spear is specifically designed for use against&nbsp;<a href=\"https://www.d20pfsrd.com/bestiary/monster-listings/humanoids/giants\">giants</a>, who have long reach and the ability to soak up large amounts of damage.</em></p>"
		},
		{
			"id": "Dwarven Heavy Axe-Gauntlet",
			"name": "Dwarven Heavy Axe-Gauntlet",
			"description": "<p><em>An axe-gauntlet is a locked&nbsp;<a href=\"https://www.d20pfsrd.com/equipment/weapons/weapon-descriptions/gauntlet\">gauntlet</a>&nbsp;covering the hand and forearm up to and over the elbow, with an axe blade built around the&nbsp;<a href=\"https://www.d20pfsrd.com/equipment/weapons/weapon-descriptions/gauntlet\">gauntlet</a>’s permanently closed fist. Axe-gauntlets were developed when dwarven warriors often had to engage in running fights against larger, stronger opponents in areas the&nbsp;<a href=\"https://www.d20pfsrd.com/races/core-races/dwarf\">dwarves</a>&nbsp;did not intend to ever return to. Losing a weapon in such circumstances often made it irretrievable, and the axe-gauntlet became popular with rearguard warriors. Though these weapons have seen significantly less use since the&nbsp;<a href=\"https://www.d20pfsrd.com/races/core-races/dwarf\">dwarves</a>&nbsp;reached the surface, some dwarven warriors still appreciate the reliability of such designs.</em></p>\n<p>An axe-gauntlet takes a&nbsp;<a href=\"https://www.d20pfsrd.com/gamemastering/combat#TOC-Full-Round-Actions\">full-round action</a>&nbsp;to don, and it gives you a +10 bonus to your&nbsp;<a href=\"https://www.d20pfsrd.com/gamemastering/combat#TOC-Combat-Maneuver-Defense\">CMD</a>&nbsp;against&nbsp;<a href=\"https://www.d20pfsrd.com/gamemastering/combat#TOC-Disarm\">disarm</a>&nbsp;attempts. You can’t use the hand on which an axe-gauntlet is worn for anything else.</p>"
		},
		{
			"id": "Dwarven Heavy Pelletbow",
			"name": "Dwarven Heavy Pelletbow",
			"description": "<p><em>The dwarven pelletbow is a crossbowlike weapon that is loaded with and fires&nbsp;<a href=\"https://www.d20pfsrd.com/equipment/weapons/weapon-descriptions/sling\">sling</a>&nbsp;bullets rather than bolts.</em></p>\n<p>A dwarven heavy pelletbow takes the same amount of time and effort to load as a&nbsp;<a href=\"https://www.d20pfsrd.com/equipment/weapons/weapon-descriptions/crossbow-light\">light crossbow</a>&nbsp;(normally a&nbsp;<a href=\"https://www.d20pfsrd.com/gamemastering/combat#TOC-Move-Actions\">move action</a>).</p>\n<p>Normally a pelletbow takes two hands to operate, but you can shoot (but not load) a pelletbow with one hand by taking a –2 penalty on&nbsp;<a href=\"https://www.d20pfsrd.com/gamemastering/combat#TOC-Attack-Roll\">attack rolls</a>. You can shoot one pelletbow with each hand, but you take a penalty on attack rolls for attacking with two one-handed weapons.</p>\n<p>Feats and special abilities that don’t involve proficiency (that don’t depend on dealing piercing damage or firing bolts) that apply to a&nbsp;<a href=\"https://www.d20pfsrd.com/equipment/weapons/weapon-descriptions/crossbow-heavy\">heavy crossbow</a>&nbsp;also apply to a dwarven heavy pelletbow.</p>"
		},
		{
			"id": "Dwarven Light Axe-Gauntlet",
			"name": "Dwarven Light Axe-Gauntlet",
			"description": "<p><em>An axe-gauntlet is a locked&nbsp;<a href=\"https://www.d20pfsrd.com/equipment/weapons/weapon-descriptions/gauntlet\">gauntlet</a>&nbsp;covering the hand and forearm up to and over the elbow, with an axe blade built around the gauntlet’s permanently closed fist. Axe-gauntlets were developed during the long Quest for Sky, when dwarven warriors often had to engage in running fights against larger, stronger opponents in areas the&nbsp;<a href=\"https://www.d20pfsrd.com/races/core-races/dwarf\">dwarves</a>&nbsp;did not intend to ever return to. Losing a weapon in such circumstances often made it irretrievable, and the axe-gauntlet became popular with rearguard warriors. Though these weapons have seen significantly less use since the&nbsp;<a href=\"https://www.d20pfsrd.com/races/core-races/dwarf\">dwarves</a>&nbsp;reached the surface, some dwarven warriors still appreciate the reliability of such designs.</em></p>\n<p>An axe-gauntlet takes a&nbsp;<a href=\"https://www.d20pfsrd.com/gamemastering/combat#TOC-Full-Round-Actions\">full-round action</a>&nbsp;to don, and it gives you a +10 bonus to your&nbsp;<a href=\"https://www.d20pfsrd.com/gamemastering/combat#TOC-Combat-Maneuver-Defense\">CMD</a>&nbsp;against&nbsp;<a href=\"https://www.d20pfsrd.com/gamemastering/combat#TOC-Disarm\">disarm</a>&nbsp;attempts. You can’t use the hand on which an axe-gauntlet is worn for anything else.</p>"
		},
		{
			"id": "Dwarven Light Pelletbow",
			"name": "Dwarven Light Pelletbow",
			"description": "<p><em>The dwarven pelletbow is a crossbowlike weapon that is loaded with and fires&nbsp;<a href=\"https://www.d20pfsrd.com/equipment/weapons/weapon-descriptions/sling\">sling</a>&nbsp;bullets rather than bolts.</em></p>\n<p>A dwarven light pelletbow can be reloaded as a&nbsp;<a href=\"https://www.d20pfsrd.com/gamemastering/combat#TOC-Free-Actions\">free action</a>&nbsp;(allowing characters to attack with it multiple times in a round).</p>\n<p>Normally a pelletbow takes two hands to operate, but you can shoot (but not load) a pelletbow with one hand by taking a –2 penalty on&nbsp;<a href=\"https://www.d20pfsrd.com/gamemastering/combat#TOC-Attack-Roll\">attack rolls</a>. You can shoot one pelletbow with each hand, but you take a penalty on attack rolls for attacking with two light weapons.</p>\n<p>Feats and special abilities that don’t involve proficiency (that don’t depend on dealing piercing damage or firing bolts) that apply to a&nbsp;<a href=\"https://www.d20pfsrd.com/equipment/weapons/weapon-descriptions/crossbow-light\">light crossbow</a>&nbsp;also apply to a dwarven light pelletbow.</p>"
		},
		{
			"id": "Dwarven Longaxe",
			"name": "矮人长战斧",
			"description": "<p><em>These ornate and heavy blades are mounted atop a long, steel-shod haft for greater reach. They are rare among cave-dwelling&nbsp;<a href=\"https://www.d20pfsrd.com/races/core-races/dwarf\">dwarves</a>&nbsp;but common in mountain&nbsp;<a href=\"https://www.d20pfsrd.com/races/core-races/dwarf\">dwarf</a>&nbsp;clans that commonly feud with&nbsp;<a href=\"https://www.d20pfsrd.com/bestiary/monster-listings/humanoids/giants\">giants</a>.</em></p>"
		},
		{
			"id": "Dwarven Longhammer",
			"name": "矮人长战鎚",
			"description": "<p><em>这柄沉重的战槌通常是雕刻或铸造出可怕的人脸或钻满微小的洞，以在挥舞时发出尖锐的口哨声。</em></p>"
		},
		{
			"id": "Dwarven Maulaxe",
			"name": "Dwarven Maulaxe",
			"description": "<p><em>This versatile weapon appears like a heavy-headed axe, but a skilled wielder can strike equally well with its chopping edge as with the forged sledge that backs the blade.</em></p>\n<p>A dwarven maulaxe is a martial weapon for dwarves and an exotic weapon for members of other races. It is not a double weapon, and any enchantments applied to the weapon operate normally regardless of which part of the weapon’s head is used to deliver the blow, except for enhancements that apply only to blunt or sharp weapons. Such enhancements apply only to attacks dealing the appropriate type of damage.</p>"
		},
		{
			"id": "Dwarven Ram Hammer",
			"name": "Dwarven Ram Hammer",
			"description": "<p><em>The dwarven ram hammer is designed to be thrown or used in melee, with a long leather strap that is wrapped around the wrist when used to deliver blows in close combat but unfurled to aid in swinging the weapon when the hammer is thrown.</em></p>"
		},
		{
			"id": "Dwarven Sphinx Hammer",
			"name": "Dwarven Sphinx Hammer",
			"description": "<p><em>The dwarven sphinx hammer is a long-handled hammer with a striking head that is artfully designed to look like a ram-headed criosphinx. Most commonly found among the Pahmet, the dwarven sphinx hammer is balanced for use as both a melee weapon and a thrown weapon.</em></p>"
		},
		{
			"id": "Dwarven Urgrosh",
			"name": "矮人矛斧",
			"description": "<p>矮人矛斧是一件双头武器——斧头和矛尖分别位于长柄的两端。矛斧的斧头是造成1d8伤害的挥砍武器，矛尖是造成1d6伤害的穿刺武器。你能将任一端视为主手武器；另一端则为副手武器。若你用矛斧迎击冲锋角色，这件武器的矛尖能够造成双倍伤害。矮人能将矮人矛斧视为军用武器。</p>"
		},
		{
			"id": "Dwarven War-Shield",
			"name": "Dwarven War-Shield",
			"description": "<p><em>This shield&rsquo;s sides are cut into jagged angles and honed to razor sharpness. Dwarven skirmishers often wield these shields in pairs, savagely hacking opponents to pieces, while some dwarven scoundrels enjoy the shields&rsquo; imposing appearance and ease of use.</em></p>\n<p>If you have the&nbsp;<a href=\"https://www.d20pfsrd.com/feats/combat-feats/two-weapon-fighting-combat/\">Two-Weapon Fighting</a>&nbsp;feat and are wielding two dwarven war-shields, increase the higher of the two shield bonuses by 1. You lose this benefit for 1 round when you make a shield bash with one or both dwarven war-shields (unless you have the&nbsp;<a href=\"https://www.d20pfsrd.com/feats/combat-feats/improved-shield-bash/\">Improved Shield Bash</a>&nbsp;feat or a similar benefit). A hand holding a dwarven war-shield can&rsquo;t be used for anything else. A dwarven war-shield gains no benefit from shield spikes.</p>"
		},
		{
			"id": "Dwarven Waraxe",
			"name": "矮人重斧",
			"description": "<p>矮人重斧巨大、装饰华美的斧头安装在粗大的握柄上，使得它难以在经受特殊训练之前单手使用；因此这是一件异种武器。中型体型的角色能在双手持用矮人重斧的情况下将其视为军用武器，大型体型的生物则能类似地单手持用。矮人能将矮人重斧视为军用武器，甚至在单手持用时。</p>"
		},
		{
			"id": "Dye Arrow",
			"name": "染色箭",
			"description": "<p>效果：使用染色弹药射击是一次接触攻击；被染色弹药击中的生物不会受到伤害但是它会被黑色，蓝色，绿色或者红色彩弹覆盖1平方英尺表面。在最初72小时内，这些彩弹造成的污渍不能被魔法以外的方式洗掉，但是会在2周后完全褪色。</p>"
		},
		{
			"id": "Earth Breaker",
			"name": "裂地锤",
			"description": "<p>这把巨锤头部的致命钢铁收拢为数个钝尖，将挥舞的猛恶力道集中于较小的区域，使其能够轻易砸穿铠甲。由于其令人咋舌的尺寸和沉重的锤头，一把裂地锤的平衡很难掌控，需要双手才能恰当地举起和控制</p>"
		},
		{
			"id": "Elven Branched Spear",
			"name": "精灵分叉矛",
			"description": "<p><em>这根细长的尖矛顶部下面，依次伸出了不少尖细的倒刺，就像开叉的树枝一样，与矛尖共同伸向前方。</em></p>\n<p>当目标因移动而引发你的藉机攻击时，该武器进行的藉机攻击AB得到+2加值。使用符合体型的精灵分叉矛时，虽然它不是轻型武器，但可以将武器娴熟专长适用於该武器，即使用敏捷代替力量来计算攻击。精灵将精灵分叉矛视为军用武器。</p>"
		},
		{
			"id": "Elven Curve Blade",
			"name": "精灵曲剑",
			"description": "<p>本质上是加长版的弯刀，但刀身更窄的精灵曲剑相当稀罕。由于打造它的金属柔韧性超群，精灵曲剑在抵抗针对其本身的破武战技时令你的CMD+10。你能通过“武器娴熟”专长在持用一把型号与你体型相符的精灵曲剑时，在攻击检定中以敏捷修正取代力量修正，即便它并不是轻型武器。</p>"
		},
		{
			"id": "Estoc",
			"name": "锥剑",
			"description": "<p><em>锥剑跟重剑一样长，但它被设计用来刺击。它的「剑刃」就是一根三棱锥刺，有的时候甚至会做成六棱。</em></p>\n<p>就像重剑一样，锥剑经过异种武器训练可以单手使用，但它同样也可以当做双手军用武器来使用。单手持用时，就视为单手武器；双手持用时，就视为双手武器。当你擅长单手使用锥剑，则在使用符合体型的锥剑时，无论单手持用还是双手持用，无论它不是轻型武器，都可以将武器娴熟专长适用於锥剑上，即用敏捷代替力量来计算攻击。</p>"
		},
		{
			"id": "Falcata",
			"name": "反曲剑",
			"description": "<p>这把沉重的刀剑单侧开刃，锋利的刃侧从底部凹向顶部，并具有钩形的握柄。如同放大版的反曲刀，它的形状使重心靠前，其锋刃的打击动量如同斧头。它的剑柄有时会被刻成马头或鹰头，并可能有连结柄端与护手之间的细链用来保护手部和手指。</p>"
		},
		{
			"id": "Falchion",
			"name": "弯刃大刀",
			"description": "<p>这把兵器有着弯刀一般弯曲和锐利的锋刃，未开锋的刀背则有直有曲。它的重量集中在前端，因此用来切斩要比戳刺来得顺手。</p>"
		},
		{
			"id": "Fauchard",
			"name": "斩矛",
			"description": "<p>就和大砍刀一样，斩矛也是一根末端有着弧形刀刃的长杆武器。然而，和短镰或巨镰一样，其锋刃处于凹进去的一侧。</p>"
		},
		{
			"id": "Featherweight Dart",
			"name": "羽量飞镖",
			"description": "<p>这些极为轻巧的飞镖如同吹箭，除了它们被用于悄悄地传递毒素而不是造成伤害。当你以此飞镖命中一个敌人，毒素会在飞镖脱落时注入目标体内，并且令伤口难以愈合。任何伤害减免，硬度或者类似防护可以阻止飞镖传递毒素。任何对目标的检查必须通过DC20的察觉检定来发现被飞镖穿刺的伤口，以及寻找飞镖掉落的地方需要DC15的察觉检定。这种弹药可以用于吹箭或手腕发射器。</p>"
		},
		{
			"id": "Fire Crossbow Bolt",
			"name": "火焰弩矢",
			"description": "<p>一旦成功命中目标，这支弩矢会造成正常伤害并额外造成1D4点火焰伤害。注意：火焰弩矢不会造成溅射伤害，并且火焰不足以点燃目标（除非目标已经变得易燃）</p>"
		},
		{
			"id": "Flailpole",
			"name": "长柄连枷",
			"description": "<p><em>这只不过是一个沉重的连枷，安装在一个长柄的末端。</em></p>"
		},
		{
			"id": "Flambard",
			"name": "Flambard",
			"description": "<p><em>This two-handed sword has a wavy blade that is especially useful for cutting through wooden weapons.</em></p>\n<p>If you are proficient with this weapon, you gain a +4 bonus on any sunder attempts made against weapons with a wooden haft; otherwise you may use this sword as a bastard sword.</p>"
		},
		{
			"id": "Flask Thrower",
			"name": "掷瓶器",
			"description": "<p>这个异种武器由一根棍子和棍子末端一个篮子组成，篮子内可以放置强酸等类似的炼金武器。掷瓶器能有效地增加造成溅射伤害的投掷物质的飞行距离，比如强酸，炽火胶或圣水。同时，掷瓶器也适用于绊足包，暴雷石或铁蒺藜。</p>"
		},
		{
			"id": "Flickmace",
			"name": "Flickmace",
			"description": "<p>The innovation behind a flick-mace, which has an ordinary mace head, lies within its spring-loaded haft and protruding handles. When the mace is compressed, removing the handles instantly springs the mace to its full size. While it is extended, a quick flick of the wrist allows the weapon to be compressed.</p>"
		},
		{
			"id": "Flight Arrow",
			"name": "飞箭",
			"description": "<p>这种箭矢的轻杆提供了极远的射程。长弓使用飞箭时的射程增量提高20尺，短弓则提高10尺。它们判断伤害时视为武器型号小于实际一级。</p>"
		},
		{
			"id": "Flindbar",
			"name": "Flindbar",
			"description": "<p><em>This one-handed weapon is similar to a nunchaku in that it consists of a pair of bars linked with heavy chain. However, a flindbar’s bars are made of iron and are capped with a ring of spikes or studs. Since it’s much heaver than a nunchaku, it is not a light weapon.</em></p>"
		},
		{
			"id": "Flying Blade",
			"name": "旋刃",
			"description": "<p>旋刃是一件大型的圆月弯刀与10尺锁链铆定而成。你在持用旋刃战斗时，将其在自己头顶旋转数圈后掷向对手【译者吐槽：简直Flag立到飞起】。由于旋刃是件太过笨拙的武器，你用它做出的攻击检定-2；但若你用它发动针对移动而引起的藉机攻击时，攻击检定不但不受减值反而还会+2。</p>"
		},
		{
			"id": "Flying Talon",
			"name": "飞爪",
			"description": "<p>这个武器由一条锁链和末端一枚三叉刺钩所组成。由于武器本身十分笨拙，因此使用者无法通过飞爪进行藉机攻击，同时他也不能对邻近方格造成威胁。</p>"
		},
		{
			"id": "Gandasa",
			"name": "斧匕",
			"description": "<p><em>这把宽匕首单面开刃，把手约2尺长，用起来如同斧头一般。这把武器也被称呼为象匕，因为刃与柄的连接处经常装饰有象头一般的图纹。</em></p>"
		},
		{
			"id": "Garrote",
			"name": "Garrote",
			"description": "<p>In order to use a garrote, your opponent must be helpless or unaware of you. You must make a grapple check (though you avoid the &ndash;4 penalty for not having two hands free) to successfully begin garroting your opponent. Sneak attack damage does not apply to a garrote. Your garroted opponent must make a concentration check (DC 20 + your CMB + level of the spell he&rsquo;s casting) to cast a spell with a verbal component, use a command word item, or use any magic requiring speech. You gain the following additional option when grappling with a garrote.</p>\n<p><strong>Choke</strong>: You cut off your target&rsquo;s air supply so he has to hold his breath (see Suffocation, and the Swim skill for additional information). Any round you do not maintain the choke, your opponent can take a breath and restart when he has to begin making Constitution checks.</p>"
		},
		{
			"id": "Gauntlet",
			"name": "铁手套",
			"description": "<p>这件铁手套让你在徒手打击时造成致命伤害。铁手套的打击的其他方面则视为徒手攻击。这里的价格和重量是单件的铁手套，中甲和重甲（胸甲除外）自带铁手套。铁手套无法被卸武。</p>"
		},
		{
			"id": "Gladius",
			"name": "阔短剑",
			"description": "<p>较寻常短剑为重的阔短剑是角斗士们的最爱。影响短剑的专长和能力同样作用于阔短剑。</p>"
		},
		{
			"id": "Glaive",
			"name": "大砍刀",
			"description": "<p>大砍刀是把单刀加装在长约7尺的握柄上的武器。</p>"
		},
		{
			"id": "Glaive-Guisarme",
			"name": "尖刺大砍刀",
			"description": "<p>这件长兵器组合了大砍刀的锋刃和一只险恶的弯钩。被戈刀击中的骑乘对像用以维持骑乘的骑术检定-2。</p>"
		},
		{
			"id": "Gnome Battle Ladder",
			"name": "侏儒战梯",
			"description": "<p>侏儒们把这种加固过的4英尺长窄梯当做武器。战斗中，侏儒战梯就像木棍一样。但梯子上的空间可以用来纠缠对手的肢体，因此其获得“绊摔”武器特性。</p>"
		},
		{
			"id": "Gnome Hooked Hammer",
			"name": "侏儒钩锤",
			"description": "<p>侏儒钩锤是一件双头武器——这件天才工具的长柄一端是锤头，另一端则是弧形的镐。锤头的钝面是造成1d6伤害的钝击武器（重击倍率×3），钩侧是造成1d4伤害的穿刺武器（重击倍率×4）。你能将任一端视为主手武器。侏儒能将钩锤视为军用武器。</p>"
		},
		{
			"id": "Gnome Pincher",
			"name": "侏儒耙",
			"description": "<p><em>这是一种奇妙的武器，2尺长的木杆顶部有着4个钝钩，看起来就像一个老人抓背器。</em></p>\n<p>握紧杆上的手柄可以使钩子收紧。可以使用侏儒耙进行卸武或窃取战技，并可以获得+2加值。将侏儒耙上的物品转移到自己手中是一个自由动作。侏儒将侏儒耙视为军用武器。</p>"
		},
		{
			"id": "Gnome Piston Maul",
			"name": "侏儒动力槌",
			"description": "<p>每当这把炼金能量驱动的大棒锤击目标，它锤头上安装的机械活塞就会释放出可怖的破坏力。使用动力槌进行的成功的破武战技攻击可以造成额外+4伤害。但是，动力槌使用一枚暴雷石作为能量源；否则它只相当于一把普通的巨木棒。为动力槌更换暴雷石需要一个标准动作，每一块暴雷石可以驱动动力槌24小时，之后便会耗尽。</p>"
		},
		{
			"id": "Gnome Ripsaw Glaive",
			"name": "侏儒链锯大砍刀",
			"description": "<p>这把大砍刀的锋刃被替换成了用一副转轴驱动的带刃的链条，这个转轴上链接着一条厚重的拉索。如果拉索被（以一个移动动作）拉动，这锯刃就会开始保持飞旋相当于你的力量调整值的轮数，这时武器可以造成额外+2伤害；若非如此，则它相当于普通的大砍刀。</p>"
		},
		{
			"id": "Grappling Hook",
			"name": "Grappling Hook",
			"description": ""
		},
		{
			"id": "Great Club",
			"name": "巨木棒",
			"description": "<p>这把普通木棒的巨大笨重版沉到你无法单手持用的地步。它可能经过了装饰和雕刻、以金属强化过，也有可能仅是个大树枝。巨木棒和寻常木棒一样有很多名字，譬如大棒、巨棒、棒棒等。</p>"
		},
		{
			"id": "Greataxe",
			"name": "巨斧",
			"description": "<p>这把双手战斧沉到你无法单手持用的地步。斧头可能单刃或双刃，为了增加斩击力和协助破盾还可能打成“胡子形”（意即带钩或斧刃底端向外弯曲）。握柄一般长3到4尺。</p>"
		},
		{
			"id": "Greatsword",
			"name": "巨剑",
			"description": "<p>这把巨大的双手剑长约5尺。巨剑可能会在剑身底部有一处未开锋，用来协助抓握。【译注：后半句说的就是大名鼎鼎的德国双手大剑Zweihänder了。】</em></p>"
		},
		{
			"id": "Groaning Sling Bullet",
			"name": "蜂鸣弹丸",
			"description": "<p>这些弹丸有着层叠的蜂窝状结构，因此他们飞行时会在500尺范围内发出令人毛骨悚然的声音。</p>"
		},
		{
			"id": "Guisarme",
			"name": "长勾刀",
			"description": "<p>长钩刀柄长8尺，先端装有刀刃和弯钩。</p>"
		},
		{
			"id": "Halberd",
			"name": "戟",
			"description": "<p>戟像是5尺长的矛，但通常在先端附近装有斧头。</p>"
		},
		{
			"id": "Halfling Rope-Shot",
			"name": "半身人旋绳",
			"description": "<p><em>这根短绳的一端用猴拳结系着一个投石索弹药，另一端则是一个圆环。以一个全回合动作将圆环套上自己的手腕后，将它旋转起来可以像连枷一般使用。当圆环好好套在手腕上时，无论旋绳是被卸武还是自己丢掉，都可以用迅捷动作立刻恢复持用。脱下旋绳也是一个全回合动作。将旋绳藏在身上的巧手检定获得+2加值。半身人将旋绳视为军用武器。</em></p>"
		},
		{
			"id": "Halfling Sling Staff",
			"name": "半身人投石杖",
			"description": "<p>特殊设计为连结短棒的投石索，一把半身人投石杖能在熟练持用者的手中发挥巨大威力。你能在使用投石杖时将力量修正加至伤害，如同它是投掷武器一般。你能单手使用投石杖抛石，但无法装填。为投石杖装填是一个需要用到两只手、并且会引发藉机攻击的移动动作。半身人投石杖抛射弹丸。你能用投石杖抛掷普通的石块，但石块不如专门的弹丸一样密度均匀、形状圆润。因此这种攻击要受到-1减值，而判断伤害时要将其视为武器型号小于实际一级。半身人投石杖还能被当作造成钝击伤害的简易近战武器，视为同等型号的木棒。半身人能将半身人投石杖视为军用武器。</p>"
		},
		{
			"id": "Hand Crossbow",
			"name": "手弩",
			"description": "<p>你能用手拉开手弩。为手弩装填是一个会引发藉机攻击的移动动作。如同使用轻弩和重弩一样，手弩发射标准弩矢。你能单手使用手弩射击且不受攻击减值，但无法单手装填。你还能两只手各持用一把轻弩射击，但这样将会受到如同使用两把轻型武器的双武器战斗减值。</p>"
		},
		{
			"id": "Handaxe",
			"name": "手斧",
			"description": "<p>这把单手斧较短（长约1尺），被设计为单手使用。与飞斧不同，它的回旋动量不是非常平衡，其头部较为沉重。短斧、斧头之类称呼指的就是手斧。</p>"
		},
		{
			"id": "Handwraps",
			"name": "Handwraps",
			"description": "<p>Many unarmed fighters wrap their hands in cloth to minimize injuries to their fists.</p>\n<p>Some martial artists also weave small coins or metal bars into their handwraps, adding special material effects as well. Handwraps don’t alter the damage a character’s unarmed attacks deal. However, masterwork handwraps can be enchanted as weapons, providing their benefits on unarmed attacks the character makes with her hands. A character can’t benefit from both handwraps and other items that provide enhancement bonuses or weapon special abilities (such as an&nbsp;<a href=\"https://www.d20pfsrd.com/magic-items/wondrous-items/wondrous-items/a-b/amulet-of-mighty-fists\">amulet of mighty fists</a>) on the same attack.</p>"
		},
		{
			"id": "Harpoon",
			"name": "鱼叉",
			"description": "<p>鱼叉是一把有倒钩的矛，其尾部还连结着50尺长的绳索。多数鱼叉都有着金属尖端，少数为兽牙或木制的。若你擅长鱼叉，它可以当作绊摔武器使用。一把鱼叉的10磅重量包括了其本身外加50尺长的麻绳，该重量可以通过换用较短或较轻的绳索来减轻。若你不擅长鱼叉，可将其视为矛。</p>"
		},
		{
			"id": "Heavy Crank Crossbow",
			"name": "重型轮轴十字弓",
			"description": "<p><em>重型轮轴十字弓握柄下面装有一个轮轴绞盘。以一个会引发藉机攻击的全回合动作，可以在轮轴上固定缠上至多50尺的丝绳。缠上绳索一段可以通过一个装填动作，连上一只倒钩箭（见本书新弹药）或爪钩箭（UE）。射出该矢后，使用者可以通过绞盘将绳子拉回来，或者在箭射出固定后，通过绳索将自己拉过去。使用倒钩箭时，将命中目标拉近自己的擒抱战技检定获得+2加值。使用爪钩箭时，使用轮轴和绞盘可让自己进行的攀爬检定获得+2加值。</em></p>"
		},
		{
			"id": "Heavy Crossbow",
			"name": "重弩",
			"description": "<p>你需要通过一个小摇杆拉开重弩。为重弩装填是一个会引发藉机攻击的整轮动作。重弩发射弩矢。操作一把重弩通常需要两只手。不过你能仅用一只手来击发重弩（装填不可），这次攻击将受到-4减值。你还能两只手各持用一把重弩射击，但这样将会受到如同使用两把单手武器的双武器战斗减值。该减值会与单手击发重弩的减值相互叠加。【译注：没有专长的话就是主手-10，副手-14哟。】</p>"
		},
		{
			"id": "Heavy Crossbow (Underwater)",
			"name": "水下重弩",
			"description": "<p>这件武器在水上和重弩别无二致。你能在水下使用它，此时射程增量为20尺。它在决定武器擅长和其他特性时被视为重弩。</p>"
		},
		{
			"id": "Heavy Flail",
			"name": "重型链枷",
			"description": "<p>类似轻型链枷，重型链枷有着较大的铁球和较长的握柄。</p>"
		},
		{
			"id": "Heavy Mace",
			"name": "重型硬头锤",
			"description": "<p>比起轻型硬头锤，重型硬头锤的头部更加硕大，握柄也更长。</p>"
		},
		{
			"id": "Heavy Pick",
			"name": "重型镐",
			"description": "<p>这把轻型镐的加强版把手较长，可以单手或双手使用。便于在马背上使用，因此常被骑兵当作廉价武器。</p>"
		},
		{
			"id": "Heavy Repeating Crossbow",
			"name": "连发重弩",
			"description": "<p>这把连发重弩装有5支弩矢。只要其中还有弩矢，你就能通过拉动杠杆进行装填（一个自由动作）。安装一个含有5支弩矢的新弹匣是一个会引起藉机攻击的整轮动作。只要武器型号与你的体型相符，你能单手击发连发重弩、或两只手分别持一把连发重弩进行射击。但是想要使用装填杠杆，你必须用双手操作这件武器，并且必须用两只手来安装新弹匣。</p>"
		},
		{
			"id": "Heavy Steel Shield",
			"name": "重钢盾",
			"description": "<p>你必须将重钢盾在前臂上束紧并用手握住才能使用它。重钢盾的重量使得你必须牢牢低用一只手掌握它，所以持盾手不能再拿用其他物品。无论是木质还是钢制，重盾在用于防御和攻击的数据上是一样的，只是法术和一些能力（如‘锈蚀爪’法术）对盾牌的效果有所不同。德鲁伊可以无惩罚地使用重木盾，而不能使用重钢盾。</p>"
		},
		{
			"id": "Heavy Wooden Shield",
			"name": "重木盾",
			"description": "<p>重木盾从数据上讲和重钢盾相同，只是法术和一些能力（如‘锈蚀爪’法术）对盾牌的效果有所不同。德鲁伊可以无惩罚地使用重木盾，而不能使用重钢盾。</p>"
		},
		{
			"id": "Heavy Wrist Launcher",
			"name": "Heavy Wrist Launcher",
			"description": "<p>A larger version of the&nbsp;<a href=\"https://www.d20pfsrd.com/equipment/weapons/weapon-descriptions/wrist-launcher/\">wrist launcher</a>, this device fires a single crossbow bolt instead of a featherweight dart. If you are proficient with&nbsp;<a href=\"https://www.d20pfsrd.com/equipment/weapons/weapon-descriptions/crossbow-hand\">hand crossbows</a>, you are also proficient with heavy wrist launchers.</p>"
		},
		{
			"id": "Hook Hand",
			"name": "Hook Hand",
			"description": "<p><em>Pirates who lose a hand in the course of their adventures sometimes attach hooks to their wrists.</em></p>\n<p>Your opponent cannot use a disarm action to disarm you of a hook hand. Hook hands generally do not interfere with routine activities, but you cannot use another weapon two-handed if you have a hook hand attached. You cannot use any type of weapon if both your hands are hook hands, and you may have trouble with routine activities.</p>\n<p>Hook hands presume that the wrist joint is intact. If the wrist joint is not intact, use the prosthesis statistics instead. It takes 1 minute to attach or detach a hook hand.</p>"
		},
		{
			"id": "Hooked Axe",
			"name": "钩斧",
			"description": "<p>这把斧头的钩状末端可以用来卸除武器或让对手失去平衡。钩斧可以被当作军用武器来使用（此时功能如同战斧）。</p>"
		},
		{
			"id": "Horsechopper",
			"name": "斩马刀",
			"description": "<p>地精为了战马【译注：不是骑战马，是和马战！】而发明了这件装有钩刃的长戟。斩马刀的武器型号多为小型。</p>"
		},
		{
			"id": "Hunga Munga",
			"name": "多刃飞刀",
			"description": "<p>又被称为“麻痹了（mambele）”、“打你死狗（danisco）”、“搞了哟（goleyo）”、“叽嘎（njiga）”甚至更为稀奇的名字，这把投掷用的多刃匕首也能用于近战。虽然三刃为常见设计，这件武器的实际形式更加多种多样。</p>"
		},
		{
			"id": "Hurlbat",
			"name": "飞掷钺",
			"description": "<p><em>飞掷钺是用一块平铁打造而成的投掷飞斧。飞掷钺的每个边都被打磨锋利，包括持握部位。你可以将飞掷钺当做近战武器使用，但它并非被设计如此；故如此使用时攻击承受-1罚值，且每次做近战攻击都必须通过DC15反射豁免检定，否则会因切到自己受1点挥砍伤害。若身穿重甲，则如此近战时不会受到该武器的这种自我伤害.</em></p>"
		},
		{
			"id": "Incendiary Arrow",
			"name": "火箭",
			"description": "<p>火箭上绑着一个金属包，里面装着易燃物质。使用火箭的攻击承受-1罚值。你可以用一个引发藉机攻击的全回合动作点燃至多6支火箭（若使用火柴则可以改为标准动作）。点燃后，火箭可以燃烧2轮。用燃烧的火箭命中会额外造成1点火焰伤害。若该次攻击重击成功，则目标必须通过DC15反射豁免，否则会着火。火箭存在弩矢版本。</p>"
		},
		{
			"id": "Incendiary Bolt",
			"name": "火矢",
			"description": "<p><em>火矢上绑着一个金属包，里面装着易燃物质。使用火矢的攻击承受-1罚值。你可以用一个引发藉机攻击的全回合动作点燃至多6支火矢（若使用火柴则可以改为标准动作）。点燃后，火矢可以燃烧2轮。用燃烧的火矢命中会额外造成1点火焰伤害。若该次攻击重击成功，则目标必须通过DC15反射豁免，否则会着火。</em></p>"
		},
		{
			"id": "Javelin",
			"name": "标枪",
			"description": "<p>标枪是细长的投矛。由于并非为近战而设计，你若把标枪当作近战武器使用，会被视为不擅长该武器并承受攻击-4减值。</p>"
		},
		{
			"id": "Jolting Dart",
			"name": "震电飞镖",
			"description": "<p>这种通过炼金术种植的晶体飞镖在投掷出去之后会产生电荷。被飞镖击中的目标会受到正常穿刺伤害以及1d6点闪电伤害。任何擅长使用飞镖的人都可以使用震击飞镖。飞镖一旦掷出就会损毁。</p>"
		},
		{
			"id": "Kama",
			"name": "单镰",
			"description": "<p>类似镰刀——在某些地区甚至还在用来收割庄稼——的单镰是一把短小曲刃连接在简单把手上的武器，把手多为木制。它有时也被称为拐，常常成对地被武道家们选用。</p>"
		},
		{
			"id": "Khopesh",
			"name": "镰剑",
			"description": "<p>这把沉重的刀剑末端有着鸦喙般的弧线，使其整体造型与战斧相似。典型的镰剑长约20到24寸。弧线设计使持用者能够绕过防御钩击、或绊摔敌人。镰剑的典雅造型驱使很多工匠为其添加精美的装饰。</p>"
		},
		{
			"id": "Klar",
			"name": "喀拉尔",
			"description": "<p>这把样式传统的部落武器将金属短刃固定在有角巨蜥的头骨之前，而技艺精湛的铁匠也能够以纯铁打造其整件。典型的喀拉尔被视为加装了盾刺的轻型木盾；金属喀拉尔则被视为加装了盾刺的轻型钢盾。</p>"
		},
		{
			"id": "Knobkerrie",
			"name": "圆头棒",
			"description": "<p><em>圆头棒，或者叫球头掷杖iwisa，是将一整块硬木削成二到四英尺长的木棍后，在其上雕出许多球状疙瘩制成。圆头棒是居于芒吉荒原中芒吉人的一种传统狩猎武器，同时也是一种权利的象征。许多部落长者将装饰好的圆头棒当做权杖或代步杖。投掷出的圆头棒会旋转着飞行。若你擅长它，用它对使用小圆盾、轻盾或重盾的目标进行远程攻击时，攻击获得+1加值。若你不擅长它，则视它为木棒。</em></p>"
		},
		{
			"id": "Knuckle Axe",
			"name": "指斧",
			"description": "<p>将形似斧头的锋刃加装在黄铜指虎上，指斧经常被成对使用。你能用装备着指斧的手抓握但非持用一件武器或其他物品。与黄铜指虎不同的是，你无法用装备着指斧的手完成施法的姿势成分。</p>"
		},
		{
			"id": "Kobold Tail Attachment (Long Lash)",
			"name": "狗头人尾部附属武器（长尾鞭）",
			"description": "<p><em>这细绳上每隔一定长度就嵌有小块的石头或者玻璃碎片。</em></p>\n<p>当狗头人佩戴狗头人尾部附属武器后，攻击造成武器的伤害，部分尾部附属武器还拥有特性。尾部附属武器均为轻武器，并且可以应用提高攻击的专长（比如“武器专攻”与“武器专精”）。所有狗头人尾部附属武器均属于＜狗头人尾部附属武器组＞，同时适用于战士的【武器训练】职业能力。尾部附属武器也可以使用特殊材料制作，制成精制品或魔法物品.</p>\n<p>拥有“惊骇之尾（Tail Terror, ARG）”专长的狗头人可以在其尾巴尖端装置这些武器以强化他们的天生武器攻击。每件尾部附属武器都给他的尾巴拍击提供足够的重量、平衡和力道以加强伤害。装上狗头人尾部附属武器需要一个整轮动作，以此方法装置使得狗头人在对抗卸武时获得+4加值.</p>"
		},
		{
			"id": "Kobold Tail Attachment (Pounder)",
			"name": "狗头人尾部附属武器（尾锤）",
			"description": "<p><em>这个扁粗的类球体是由无光泽的金属金属制成的.</em></p>\n<p>当狗头人佩戴狗头人尾部附属武器后，攻击造成武器的伤害，部分尾部附属武器还拥有特性。尾部附属武器均为轻武器，并且可以应用提高攻击的专长（比如“武器专攻”与“武器专精”）。所有狗头人尾部附属武器均属于＜狗头人尾部附属武器组＞，同时适用于战士的【武器训练】职业能力。尾部附属武器也可以使用特殊材料制作，制成精制品或魔法物品.</p>\n<p>拥有“惊骇之尾（Tail Terror, ARG）”专长的狗头人可以在其尾巴尖端装置这些武器以强化他们的天生武器攻击。每件尾部附属武器都给他的尾巴拍击提供足够的重量、平衡和力道以加强伤害。装上狗头人尾部附属武器需要一个整轮动作，以此方法装置使得狗头人在对抗卸武时获得+4加值.</p>"
		},
		{
			"id": "Kobold Tail Attachment (Razored)",
			"name": "狗头人尾部附属武器（尾锋）",
			"description": "<p><em>这块楔形的金属的一侧充满了锯齿.</em></p>\n<p>当狗头人佩戴狗头人尾部附属武器后，攻击造成武器的伤害，部分尾部附属武器还拥有特性。尾部附属武器均为轻武器，并且可以应用提高攻击的专长（比如“武器专攻”与“武器专精”）。所有狗头人尾部附属武器均属于＜狗头人尾部附属武器组＞，同时适用于战士的【武器训练】职业能力。尾部附属武器也可以使用特殊材料制作，制成精制品或魔法物品.</p>\n<p>拥有“惊骇之尾（Tail Terror, ARG）”专长的狗头人可以在其尾巴尖端装置这些武器以强化他们的天生武器攻击。每件尾部附属武器都给他的尾巴拍击提供足够的重量、平衡和力道以加强伤害。装上狗头人尾部附属武器需要一个整轮动作，以此方法装置使得狗头人在对抗卸武时获得+4加值.</p>"
		},
		{
			"id": "Kobold Tail Attachment (Spiked)",
			"name": "狗头人尾部附属武器（尾钉）",
			"description": "<p><em>这个钉子形状的物体有着锋利的尖刺.</em></p>\n<p>当狗头人佩戴狗头人尾部附属武器后，攻击造成武器的伤害，部分尾部附属武器还拥有特性。尾部附属武器均为轻武器，并且可以应用提高攻击的专长（比如“武器专攻”与“武器专精”）。所有狗头人尾部附属武器均属于＜狗头人尾部附属武器组＞，同时适用于战士的【武器训练】职业能力。尾部附属武器也可以使用特殊材料制作，制成精制品或魔法物品.</p>\n<p>拥有“惊骇之尾（Tail Terror, ARG）”专长的狗头人可以在其尾巴尖端装置这些武器以强化他们的天生武器攻击。每件尾部附属武器都给他的尾巴拍击提供足够的重量、平衡和力道以加强伤害。装上狗头人尾部附属武器需要一个整轮动作，以此方法装置使得狗头人在对抗卸武时获得+4加值.</p>"
		},
		{
			"id": "Kobold Tail Attachment (Sweeper)",
			"name": "狗头人尾部附属武器（尾钩）",
			"description": "<p><em>当你正确使用尾钩的时候，你可以用这明显弯曲的金属将对手拽倒。与大多数绊摔武器不同，当你尝试失败而反被绊摔时无法丢掉武器</em></p>\n<p>当狗头人佩戴狗头人尾部附属武器后，攻击造成武器的伤害，部分尾部附属武器还拥有特性。尾部附属武器均为轻武器，并且可以应用提高攻击的专长（比如“武器专攻”与“武器专精”）。所有狗头人尾部附属武器均属于＜狗头人尾部附属武器组＞，同时适用于战士的【武器训练】职业能力。尾部附属武器也可以使用特殊材料制作，制成精制品或魔法物品.</p>\n<p>拥有“惊骇之尾（Tail Terror, ARG）”专长的狗头人可以在其尾巴尖端装置这些武器以强化他们的天生武器攻击。每件尾部附属武器都给他的尾巴拍击提供足够的重量、平衡和力道以加强伤害。装上狗头人尾部附属武器需要一个整轮动作，以此方法装置使得狗头人在对抗卸武时获得+4加值.</p>"
		},
		{
			"id": "Kukri",
			"name": "反曲刀",
			"description": "<p>反曲刀是一把长约1尺的曲形剑。</p>"
		},
		{
			"id": "Kumade",
			"name": "熊手",
			"description": "<p><em>基于园丁耙改制，这东西就是在木或竹竿上钉一个爪钩上去。头部可以当做爪钩（grappling hook）使用。将熊手固定在表面，比如门梁或窗檐时，可以将它当做5尺长的绳索来辅助攀爬.</em></p>"
		},
		{
			"id": "Kunai",
			"name": "苦无",
			"description": "<p><em>用一块铁制成的苦无有着一个十分尖细的锋尖和一个环形底部。虽然长得有点像小铲子，不过苦无的尖端边缘锋利头尖如针。而且比起其它武器，苦无可以直接被当做撬棍或岩钉使用，而不会因此受损</em></p>"
		},
		{
			"id": "Lance",
			"name": "长枪",
			"description": "<p>在冲锋的坐骑背上使用长枪将造成双倍伤害。你能在骑乘中以单手持用长枪。</p>"
		},
		{
			"id": "Lantern Staff",
			"name": "燃灯杖",
			"description": "<p>这柄长长的金属棍有着用来盛放灯油的容器，其末端有着类似灯笼一样的结构。灌有燃料的燃灯杖可以像附盖提灯一样提供光源。同时以燃灯杖进行攻击时，在正常伤害外还可以造成1点火焰伤害。任何适用于木棍的效果——那些将木棍作为双头武器使用的除外——同样适用于燃灯杖。</p>"
		},
		{
			"id": "Lasso",
			"name": "套索",
			"description": "<p>这件投掷武器是一段打有活结的绳索，使你能够如同使用捕网一般缠绕住对手。缠绕对像施法的专注DC为“10+法术环级”。缠绕对像能以整轮动作通过DC15的脱逃检定摆脱绳索。套索生命值2点，AC为10，破坏它的力量检定DC为23。成功命中后套索会拉紧；想要再次使用，你需要通过一个标准动作来使绳结复位。</p>"
		},
		{
			"id": "Launching Crossbow",
			"name": "Launching Crossbow",
			"description": "<p><em>A launching crossbow is designed to launch splash weapons.</em></p>\n<p>Loading a launching crossbow is a full-round action that provokes attacks of opportunity.</p>"
		},
		{
			"id": "Light Crank Crossbow",
			"name": "轻型轮轴十字弓",
			"description": "<p>该武器与重型轮轴十字弓很像，除了伤害、重击倍数射程上的区别，正如轻型十字弓和重型十字弓的区别。还有，轻型轮轴十字弓在使用倒钩箭和爪钩箭时分别只会提供+1加值，而非+2.</p>"
		},
		{
			"id": "Light Crossbow",
			"name": "轻弩",
			"description": "<p>你需要通过一个小拉杆拉开轻弩。为轻弩装填是一个会引发藉机攻击的移动动作。轻弩发射弩矢。操作一把轻弩通常需要两只手。不过你能仅用一只手来击发轻弩（装填不可），这次攻击将受到-2减值。你还能两只手各持用一把轻弩射击，但这样将会受到如同使用两把轻型武器的双武器战斗减值。该减值会与单手击发轻弩的减值相互叠加。</p>"
		},
		{
			"id": "Light Crossbow (Underwater)",
			"name": "水下轻弩",
			"description": "<p>水下轻弩在水上的功能和轻弩相似，并能在水下使用。在水下射击时，这把弩的射程增量为20尺。任何擅长普通轻弩的人都能操作水下轻弩。</p>"
		},
		{
			"id": "Light Flail",
			"name": "轻型链枷",
			"description": "<p>轻型链枷包括沉重的打击先端，以及通过锁链与之连接的握柄。虽然常被想像为类似钉头锤一般的铁球，链枷的先端其实可能为多种形状，譬如短杠状。军用链枷是农用链枷的强化版本，后者则是用来敲打谷物以分离谷实和谷壳的工具。</p>"
		},
		{
			"id": "Light Hammer",
			"name": "轻锤",
			"description": "<p>作为战锤的轻量化版本，这件武器的光滑锤头通常有一个打击面。</p>"
		},
		{
			"id": "Light Mace",
			"name": "轻型硬头锤",
			"description": "<p>轻型硬头锤的头部是一块雕琢精美的金属，被安装在金属或木制的握柄上。硬头锤的头部通常凹凸不平，以造成更大的痛苦和伤害。某些更原始的硬头锤是用皮带将石头固定在木柄上制成的。</p>"
		},
		{
			"id": "Light Pick",
			"name": "轻型镐",
			"description": "<p>这件武器从作为工具的鹤嘴锄演化而来，有着微曲的头部、用来穿甲的尖端和锤状的配重。</p>"
		},
		{
			"id": "Light Repeating Crossbow",
			"name": "连发轻弩",
			"description": "<p>这件武器的功能与连发重弩相似，不过伤害、重击和射程数据与轻弩相同而非重弩。它的轻量型和精细构造，使得在依赖隐秘性与射速的行动中更为便携和有效。</p>"
		},
		{
			"id": "Light Steel Shield",
			"name": "轻钢盾",
			"description": "<p>你必须将轻钢盾在前臂上束紧才能使用它。轻钢盾的持盾手可以抓握其他的物品，但仍然不足以灵活到持用另一把武器。无论是木质还是钢制，轻盾在用于防御和攻击的数据上是一样的，只是法术和一些能力（如‘锈蚀爪’法术）对盾牌的效果有所不同。德鲁伊可以无惩罚地使用轻木盾，而不能使用轻钢盾。</p>"
		},
		{
			"id": "Light Wooden Shield",
			"name": "轻木盾",
			"description": "<p>轻木盾从数据上讲和轻钢盾相同，只是法术和一些能力（如‘锈蚀爪’法术）对盾牌的效果有所不同。德鲁伊可以无惩罚地使用轻木盾，而不能使用轻钢盾。</p>"
		},
		{
			"id": "Little Starstone",
			"name": "小星星石 (10)",
			"description": "<p>经管这些石头在工艺上可以认为是投石索弹药，但是这些织物包裹的鹅卵石主要是用于发信号或庆典而不是战斗，因为它们实在不足以让被击中的人感到疼痛。当浸入油或者高浓度酒精，它们会燃烧发光持续1轮，如同一支蜡烛一样照亮一片区域，并在飞行中划出一条光带。它们通常并不足够热而且燃烧得太快因此不能用于点燃可燃物。</p>\n<p>这些石头用于攻击时只会造成1点钝击伤害</p>"
		},
		{
			"id": "Lodestone Arrow",
			"name": "磁石箭",
			"description": "<p><strong>Action</strong>: 拉动绳子来打破封印并激活箭头中的反应是一个移动动作。</p>\n<p><strong>好处</strong>：当你向穿着大量金属盔甲（至少链甲或金属盾牌）或金属制成的目标发射磁石箭时，攻击骰获得+4加值。增加的磁性在激活后会消失1圈，之后是正常箭头。</p>\n<p><strong>特殊</strong>：在有大量磁性金属的区域，攻击加成可能会下降到0，甚至成为一个惩罚，因为有竞争的来源使箭远离你的目标。</p>\n<p><strong>缺点</strong>：磁化箭只造成一半伤害.</p>"
		},
		{
			"id": "Longbow",
			"name": "长弓",
			"description": "长约5尺的长弓是由一整块木料精心雕刻而成的。无论其型号大小，你至少需要两只手来使用一把弓。长弓无法在骑乘时使用。若你的力量修正为负值，你持用长弓的伤害检定亦会受其影响。若你有力量加值，你能在使用复合长弓时把力量修正加至伤害检定，但标准长弓则不可。长弓发射箭矢。</p>"
		},
		{
			"id": "Longspear",
			"name": "长矛",
			"description": "<p>长矛长约8尺。</em></p>"
		},
		{
			"id": "Longsword",
			"name": "长剑",
			"description": "<p>长剑长约3英尺半。</em></p>"
		},
		{
			"id": "Lucerne Hammer",
			"name": "苜蓿战锤",
			"description": "<p>这件长兵器同时有着用来发动粉碎敲击的锤头，以及用来穿刺甲胄的矛尖。长长的握柄允许持用者蓄积令人惊异的力道。你持用苜蓿战锤时，击破中型和重型盔甲的破武战技检定+2。</p>"
		},
		{
			"id": "Machete",
			"name": "Machete",
			"description": "<p><em>This tool is a wide, single-edged blade about 2 feet in length. Most often used to hack through dense vegetation, it works equally well as a weapon.</em></p>\n<p>A character proficient with a machete gains a +1&nbsp;<a href=\"https://www.d20pfsrd.com/basics-ability-scores/glossary#TOC-Circumstance-Bonus\">circumstance bonus</a>&nbsp;on&nbsp;<a href=\"https://www.d20pfsrd.com/skills/survival\">Survival</a>&nbsp;checks to get along in the wild.</p>"
		},
		{
			"id": "Mancatcher",
			"name": "捕人叉",
			"description": "<p>这件长兵器包括了两支攻击时环绕住对象的弧形金属杠，允许你将一名对手定身。捕人叉是用来捕捉特定体型（譬如小型或中型）的生物而打造的，无法作用于体型不对的生物。向对像进行一次接触攻击，命中后再通过战技检定来擒抱他（虽然未空出双手也无需承受-4减值）；成功则意味着你与对手展开擒抱。一旦对手被擒抱，你能以擒抱动作来移动或伤害他。捕人叉硬度为10，生命值5点；破坏它的力量检定DC为26。若你放开捕人叉，对方能以一个标准动作解放自己。</p>"
		},
		{
			"id": "Manople",
			"name": "Manople",
			"description": "<p><em>This rigid, fingerless&nbsp;<a href=\"https://www.d20pfsrd.com/equipment/weapons/weapon-descriptions/gauntlet\">gauntlet</a>&nbsp;has three blades projecting from the&nbsp;<a href=\"https://www.d20pfsrd.com/equipment/weapons/weapon-descriptions/gauntlet\">gauntlet’s</a>&nbsp;hand. The central blade is straight and double edged, while the side blades are curved like the prongs of a&nbsp;<a href=\"https://www.d20pfsrd.com/equipment/weapons/weapon-descriptions/sai\">sai</a>.</em></p>\n<p>You can’t use the hand on which a manople is worn for anything else. A manople takes a&nbsp;<a href=\"https://www.d20pfsrd.com/gamemastering/combat#TOC-Full-Round-Actions\">full-round action</a>&nbsp;to don, and gives you a +10 bonus to your&nbsp;<a href=\"https://www.d20pfsrd.com/gamemastering/combat#TOC-Combat-Maneuver-Defense\">CMD</a>&nbsp;against&nbsp;<a href=\"https://www.d20pfsrd.com/gamemastering/combat#TOC-Disarm\">disarm</a>&nbsp;attempts.</p>"
		},
		{
			"id": "Mere Club",
			"name": "石磨棒",
			"description": "<p>这件石器时代的传统武器是石块雕刻而成，边缘平齐、尖端锋锐。</p>"
		},
		{
			"id": "Morningstar",
			"name": "钉头锤",
			"description": "<p>钉头锤是将铸满尖刺的铁球固定在握柄上制成的。</p>"
		},
		{
			"id": "Net",
			"name": "捕网",
			"description": "<p>捕网用来缠绕对手。当你掷出捕网时，你向对像进行一次远程接触攻击。捕网的最大射程为10尺。若你命中，目标陷入缠绕状态。被缠绕的生物攻击检定-2、敏捷-4、仅能半速移动，并且无法冲锋或奔跑。若你在力量对抗检定中胜出以控制捕网的拉索，缠绕对像将仅能在捕网绳长的限制范围内移动。若缠绕对像想要施法，他必须通过DC为“10+法术环级”的专注检定，失败则无法施法。缠绕对像能以整轮动作通过DC20的脱逃检定摆脱捕网。捕网拥有生命值5点，破坏它的力量检定DC为25。捕网仅能作用于体型和你相差一级以内的生物。捕网必须被折叠好才能有效投掷。你在战斗中首次使用捕网时，进行正常的远程接触攻击；在折叠好之前再次使用则会使攻击检定承受-4减值。擅长捕网的角色需要2轮折叠好捕网，不熟练者耗时加倍。</p>"
		},
		{
			"id": "Nunchaku",
			"name": "双节棍",
			"description": "<p>双截棍是由较短的绳索或锁链连结的两只木棒或铁棒。</p>"
		},
		{
			"id": "Ogre Hook",
			"name": "食人魔巨钩",
			"description": "<p>这把锋利金属制成的大钩子能轻易地摔翻和捕获逃窜的敌人。由食人魔发明，食人魔巨钩的武器型号多为大型，并且样式粗糙——常为从受害者身上剥下来的武器或盔甲扭成的。尽管做工差劲，获得一把食人魔巨钩的稀有度和高风险，使其价格不菲。</p>"
		},
		{
			"id": "Orc Double Axe",
			"name": "兽人双头斧",
			"description": "<p>兽人双头斧是长柄两端各有一只斧刃的凶残武器，也是一件双头武器。虽然由兽人发明、也与兽人传统相联系，还常因过重和笨拙而被诟病，这把双头斧实际能被其他任何种族打造和持用。由于两端都有锋刃，持用者必须抓握住兽人双头斧的握柄中央，然后加以挥舞——这种回旋斩劈的战斗风格相较巨斧或战斧更像是在用木棍。</p>"
		},
		{
			"id": "Orc Hornbow",
			"name": "兽人角弓",
			"description": "<p>兽人角弓通常以巨兽的坚角所打造，体积甚至超过了长弓。尽管射程上比起其他弓来稍稍逊色，但兽人角弓因其毁灭性的破坏力而广受兽人和其亲族的青睐。所有角弓都属于复合弓，因此其和别的复合弓一样可以在制造时进行调整以在高力量修正上获益。任何能同时适用于长弓和短弓的效果同样适用于角弓。</p>"
		},
		{
			"id": "Orc Skull Ram",
			"name": "Orc Skull Ram",
			"description": "<p><em>This weapon consists of a wooden log with a shoulder strap to carry some of the weight. The name comes from the&nbsp;<a href=\"https://www.d20pfsrd.com/races/other-races/featured-races/arg-orc\">orc</a>&nbsp;tradition of making the ram’s head out of a large skull.</em></p>\n<p>On a successful&nbsp;<a href=\"https://www.d20pfsrd.com/gamemastering/combat#TOC-Critical-Hits\">critical hit</a>&nbsp;with a skull ram, you can attempt a&nbsp;<a href=\"https://www.d20pfsrd.com/gamemastering/combat#TOC-Combat-Maneuvers\">combat maneuver</a>&nbsp;check to&nbsp;<a href=\"https://www.d20pfsrd.com/gamemastering/combat#TOC-Bull-Rush\">bull rush</a>&nbsp;your opponent as a&nbsp;<a href=\"https://www.d20pfsrd.com/gamemastering/combat#TOC-Free-Actions\">free action</a>.</p>"
		},
		{
			"id": "Pheromone Arrow",
			"name": "信息箭",
			"description": "<p>效果：这发弹药的顶部被包裹了一层会与血液和汗液发生反应的物质，释放出一种强烈的气味因此对于大多数捕食者会认为那是一种受伤猎物的气味，而其他生物仅仅是讨厌这个气味。任何拥有灵敏嗅觉的生物在攻击被信息弹药标记的目标时攻击和伤害检定获得+2环境加值。这个效果持续1小时或者直到目标花费1分钟洗掉这些物质。</p>"
		},
		{
			"id": "Pickaxe",
			"name": "Pickaxe",
			"description": "<p><em>A two-handed version of the heavy pick, the brutal pickaxe is equally effective at breaking up earth and stone as it is at sundering flesh and bone. Often a weapon of convenience for commoners, the pickaxe is also a favorite among brutes and thugs who value the intimidation factor afforded by the immense weapon.</em></p>"
		},
		{
			"id": "Pilum",
			"name": "重标枪",
			"description": "<p>这把重型标枪的尖端被设计用来击穿并嵌入盾牌。类似弹药，一支重标枪在击中目标后损毁。若你以重标枪击中持盾的对象，他在用一个标准动作从盾牌上拔出此物之前失去AC的盾牌加值。</p>"
		},
		{
			"id": "Planson",
			"name": "Planson",
			"description": "<p><em>This 5-foot tapered pole is bound in metal with a narrow metal spike projecting from the top. The planson can be used as a&nbsp;<a href=\"https://www.d20pfsrd.com/equipment/weapons/weapon-descriptions/club\">club</a>&nbsp;or as a sturdy, if top-heavy,&nbsp;<a href=\"https://www.d20pfsrd.com/equipment/weapons/weapon-descriptions/spear\">spear</a>&nbsp;to stop a charge.</em></p>"
		},
		{
			"id": "Pronged Arrow",
			"name": "分叉箭 ",
			"description": "<p>不同于普通箭矢在箭尖变窄，分叉箭的尖端是如同新月一般的分叉口。这种箭起源于狩猎游戏，分叉箭造成的伤害减小1个体型，但在对比你小至少1个体型的生物或物体进行攻击时获得+1加值。</p>"
		},
		{
			"id": "Pronged Bolt",
			"name": "分叉箭",
			"description": "<p>不同于普通箭矢在箭尖变窄，分叉箭的尖端是如同新月一般的分叉口。这种箭起源于狩猎游戏，分叉箭造成的伤害减小1个体型，但在对比你小至少1个体型的生物或物体进行攻击时获得+1加值。</p>"
		},
		{
			"id": "Punching Dagger",
			"name": "拳刃",
			"description": "<p>拳刃被安装在和握把呈水平方向的柄上，锋刃指向出拳的方向。</p>"
		},
		{
			"id": "Quadrens",
			"name": "多刃匕首",
			"description": "<p>多刃匕首看上去像是一把加粗的匕首，但有着方形格局的四支尖刺。每当你用多刃匕首造成重击时，它会撕裂创口并造成1点出血伤害。除了用于撕开甲胄的缝隙，它的尖刺还能用来咬住对手的剑刃并将其扭断。</p>"
		},
		{
			"id": "Quarterstaff",
			"name": "木棍",
			"description": "<p>木棍是一根简单的木头棍子，长约5尺。战斗时一手握住末端、另一手握在棍身1/4处，能够封挡来袭、迅捷反击。</em></p>"
		},
		{
			"id": "Raining Arrow",
			"name": "圣水箭",
			"description": "<p>效果：这种弹药内储存了圣水并且设计成受到冲击便爆散开来。一发圣水弹药会通常正常造成伤害并且目标视为被一瓶圣水击中；临近的生物也会受到溅射效果。一发圣水弹药会因为它的重量在攻击检定中承受-2罚值。</p>"
		},
		{
			"id": "Ranseur",
			"name": "刺叉",
			"description": "<p>和三叉戟外观相似，刺叉的一根长刺被两根短刺所夹。</p>"
		},
		{
			"id": "Rapier",
			"name": "细剑",
			"description": "<p>你能通过“武器娴熟”专长在持用一把型号与你体型相符的细剑时，在攻击检定中以敏捷修正取代力量修正，即便它并不是轻型武器。你无法通过双手持用细剑的方式来将力量修正的1.5倍加至伤害检定。</p>"
		},
		{
			"id": "Repeating Crossbow Bolt",
			"name": "连发弩矢",
			"description": "<p>连发弩矢被设计用于以连发弩发射。它们的售价略高于普通弩矢，并以5支一组出售而非10支（以和弹匣容量相匹配）</p>"
		},
		{
			"id": "Rhoka",
			"name": "双叉剑",
			"description": "<p>使用这把剑的几乎都是憎恶生命的透肌魔人（Urdefhan, B2）。这把剑的尺寸与长剑相近，但有两片并列的剑刃。</p>"
		},
		{
			"id": "Rope Gauntlet",
			"name": "Rope Gauntlet",
			"description": "<p><em>By wrapping your hands and forearms in thin but tough hemp ropes and then soaking the makeshift gloves in water for weight and expansion, you can transform your fists into rockhard weapons easily capable of killing in a fistfight.</em></p>\n<p><strong>Description</strong>: Each rope gauntlet takes a full minute to wrap and another minute to soak, but once applied can be worn for a day; removing a rope gauntlet takes 1 full round.</p>\n<p>When wearing rope gauntlets, you are considered armed and your attacks deal normal damage. If you are proficient with rope gauntlets, you may use the rough edges of the ropes to deal slashing damage rather than bludgeoning damage.</p>\n<p>Your fingers are mostly exposed, allowing you to wield or carry items in your hands while wearing rope gauntlets, but the constriction of the weapon at your knuckles gives you a –2 penalty on all precision based tasks involving your hands (such as opening locks).</p>"
		},
		{
			"id": "Sai",
			"name": "笔架叉",
			"description": "<p>笔架叉是一支被两根短刺包围的长铁刺，用来锁拿敌人的武器。持用笔架叉时，你对敌人武器的破武战技检定+2。虽然有尖刺，笔架叉并不长用来戳刺。它主要用来以柄部敲打敌人，或用尖刺的缝隙捕捉并卸除敌人的武器。笔架叉常被成对持用。</p>"
		},
		{
			"id": "Sanpkhang",
			"name": "注毒刀",
			"description": "<p>这柄精心制作的小刀上雕刻有特殊的倒钩和凹槽，以便将毒素注入到受害者的血液之中。任何通过注毒刀传递的伤口型毒药其DC会额外增加1。如果是通过重击或者偷袭传递的话则是增加2。拥有蝮血裔武器熟悉种族特性的角色擅长注毒刀。</p>"
		},
		{
			"id": "Sap",
			"name": "闷棍",
			"description": "<p>这件武器在坚硬、沉重的核心外面包裹软材料，通常是皮套铅棍。先端比把手更粗，它有着发散敲击力的设计，使其较不容易见血或断骨。</p>"
		},
		{
			"id": "Sawtoothed Sabre",
			"name": "Sawtoothed Sabre",
			"description": "<p>A&nbsp;<a href=\"https://www.d20pfsrd.com/equipment/weapons/weapon-descriptions/sabre-sawtooth\">sawtooth sabre</a>&nbsp;may be used as a Martial Weapon (in which case it functions identically to a&nbsp;<a href=\"https://www.d20pfsrd.com/equipment/weapons/weapon-descriptions/longsword\">longsword</a>).</p>\n<p>If you have the&nbsp;<a href=\"https://www.d20pfsrd.com/feats/combat-feats/exotic-weapon-proficiency/\">Exotic Weapon Proficiency</a>&nbsp;(<a href=\"https://www.d20pfsrd.com/equipment/weapons/weapon-descriptions/sabre-sawtooth\">sawtooth sabre</a>) feat, for the purpose of two-weapon fighting you can treat it as a light melee weapon; for all other purposes, it is a one-handed melee weapon.</p>"
		},
		{
			"id": "Scimitar",
			"name": "弯刀",
			"description": "<p>这把弯曲的刀剑较长剑为短，而较短剑为长。仅外侧开刃、刀背平钝，使得刀身断面呈三角形。</p>"
		},
		{
			"id": "Scizore",
			"name": "角斗剪",
			"description": "<p>角斗剪是一件恰好包裹前臂、末端加装半月刃的硬管，用来发动凶恶的拳击。角斗剪带来AC盾牌加值+1，但若你用其攻击，你会在这一轮失去其AC加值并在攻击检定中承受-1减值。在装备角斗剪时，你无法用这只手做任何其他事情。角斗剪在抵抗针对其本身的卸武战技时令你的CMD+10。装备上一件角斗剪是一个整轮动作。</p>"
		},
		{
			"id": "Scorpion Whip",
			"name": "蝎尾鞭",
			"description": "<p>这只鞭子上镶嵌着一系列犬牙交错的锋刃。它能造成致命伤害，哪怕是面对AC具有护甲加值的生物。如果你同时擅长蝎尾鞭和鞭子，你可以将蝎尾鞭正常使用（轻型演武武器）或当鞭子使用。当你将蝎尾鞭做鞭子使用时，等同于使用鞭子，但造成致命伤害而无论目标生物是否有护甲AC加值。</p>"
		},
		{
			"id": "Scythe",
			"name": "巨镰",
			"description": "<p>这件武器包括一只装有突起握柄的木制长柄，以及与木柄成直角的一把锐利曲刃。演化自用来收割庄稼的农具，一把巨镰需要双手使用，笨拙却能够一击必杀。与“收割”之间的关联使它常被作为死亡的象征符号，这令巨镰也往往被用作威慑武器。</p>"
		},
		{
			"id": "Sea-Knife",
			"name": "Sea-Knife",
			"description": "<p><em>A sea-knife is a long-handled weapon with a short blade. It is designed to be strapped to the ankle or foot of the wielder, pointing downward and jutting out beyond the wearer’s leg.</em></p>\n<p>A sea-knife can be used as a light melee weapon when the wielder is swimming, flying, or&nbsp;<a href=\"https://www.d20pfsrd.com/gamemastering/conditions#TOC-Prone\">prone</a>. This allows the wielder to use a two-handed weapon, or wield a weapon with one hand and carry a shield, and still make off-hand attacks with the sea-knife. Attacks made with a sea-knife take a –2 circumstance penalty on&nbsp;<a href=\"https://www.d20pfsrd.com/gamemastering/combat#TOC-Attack-Roll\">attack rolls</a>&nbsp;in addition to all other attack penalties.</p>\n<p>Donning or removing a sea-knife is a&nbsp;<a href=\"https://www.d20pfsrd.com/gamemastering/combat#TOC-Full-Round-Actions\">full-round action</a>.</p>\n<p>The wearer cannot use a leg with a sea-knife strapped to it for walking or running.</p>"
		},
		{
			"id": "Sharpstone Sling Bullet",
			"name": "尖角石弹丸",
			"description": "<p>一层薄薄的焙烧黏土覆盖在尖角和锯齿状脊上并覆盖在这个特制的弹丸上。熟练使用者知道如何打开这层黏土（自由动作）因此这个弹丸在射出去时暴露尖角或锯齿，并同时造成穿刺或挥砍伤害小型生物使用其作为弹药时可以造成1D3点穿刺或挥砍伤害，中型生物使用其作为弹药时可以造成1D4点穿刺或挥砍伤害。</p>"
		},
		{
			"id": "Shield Spikes (Heavy)",
			"name": "盾刺 (Heavy)",
			"description": "<p>有一些盾牌的表面加装了足以致人死命的锐利尖刺或刀刃。安装了盾刺的盾牌将变成一件造成穿刺伤害的军用武器，并会令盾牌造成的伤害如体型增大一级般提高（见军用武器中的＜带刺重盾＞和＜带刺轻盾＞）。你无法在小圆盾和塔盾上装置盾刺，并且你使用盾刺攻击相当于你使用这面盾牌进行盾击。对盾牌本身的增强附魔无法应用到盾刺攻击的效果上，但盾刺本身可以作为武器单独进行武器附魔。</p>"
		},
		{
			"id": "Shield Spikes (Light)",
			"name": "盾刺(Light)",
			"description": "<p>有一些盾牌的表面加装了足以致人死命的锐利尖刺或刀刃。安装了盾刺的盾牌将变成一件造成穿刺伤害的军用武器，并会令盾牌造成的伤害如体型增大一级般提高（见军用武器中的＜带刺重盾＞和＜带刺轻盾＞）。你无法在小圆盾和塔盾上装置盾刺，并且你使用盾刺攻击相当于你使用这面盾牌进行盾击。对盾牌本身的增强附魔无法应用到盾刺攻击的效果上，但盾刺本身可以作为武器单独进行武器附魔。</p>"
		},
		{
			"id": "Shortbow",
			"name": "短弓",
			"description": "<p>长约3尺的短弓是由一整块木料制成的。无论其型号大小，你至少需要两只手来使用一把弓。短弓可以在骑乘时使用。若你的力量修正为负值，你持用短弓的伤害检定亦会受其影响。若你有力量加值，你能在使用复合短弓时把力量修正加至伤害检定，但标准短弓则不可。短弓发射箭矢。</p>"
		},
		{
			"id": "Shortspear",
			"name": "短矛",
			"description": "<p>短矛长约3尺，这使得它作为投掷武器颇为顺手。</p>"
		},
		{
			"id": "Shortsword",
			"name": "短剑",
			"description": "<p>短剑恐怕是任何尚武社会中最为常见的武器，也因此设计花样繁多、因地域和匠人而变。多数长约2尺。它的剑身可直可曲，剑刃可单可双，剑幅可宽可窄。剑柄可能装点精美、也可能朴实无华，或有十字型护手，或有笼状护手，或干脆没有护手。这些武器通常被独立使用，但也有成对持用、或搭配匕首长剑等武器战斗的场合。</p>"
		},
		{
			"id": "Shotel",
			"name": "钩剑",
			"description": "<p>钩剑是一把向内侧开刃的曲形剑，被设计用来越过盾牌攻击对手。你在持用钩剑时，对装备有小圆盾、轻盾和重盾的对手的攻击检定+1。每把钩剑的弧度都有所不同，有些双面开刃，有些单侧开刃、另一侧可以用来加大破盾的力度。钩剑在把骑乘对像从坐骑上扯下来时效果拔群。</p>"
		},
		{
			"id": "Shrillshaft Javelin",
			"name": "Shrillshaft Javelin",
			"description": "<p><em>This single-use javelin bears a&nbsp;<a href=\"https://www.d20pfsrd.com/equipment/goods-and-services/herbs-oils-other-substances#TOC-Thunderstone\">thunderstone</a>&nbsp;just behind the head.</em></p>\n<p>If you successfully strike a target with one of these javelins, the creature takes damage as normal and is the center of the thunderstone’s effect. If you miss, roll to see where the javelin lands (as if determining a miss with a&nbsp;<a href=\"https://www.d20pfsrd.com/gamemastering/combat#TOC-Throw-Splash-Weapon\">splash weapon</a>); that square becomes the center of the thunderstone’s effect.</p>"
		},
		{
			"id": "Shuriken (5)",
			"name": "手里剑 (5)",
			"description": "<p>手里剑是一小片边缘锋利、被设计用来投掷的金属片。手里剑无法被当作近战武器使用。虽然是投掷武器，手里剑在决定精制品等特殊版本的制造与价格、以及投出后的效果时视为弹药。</p>"
		},
		{
			"id": "Siangham",
			"name": "破魔锥",
			"description": "<p>这件武器的握柄前端是戳刺敌人用的尖刺，它像是一支柄部加粗、用来近战的箭矢。</p>"
		},
		{
			"id": "Sica",
			"name": "钩刀",
			"description": "<p>这把刀是钩剑的轻量化版本。你在持用钩刀时，对装备有小圆盾、轻盾和重盾的对手的攻击检定+1。</p>"
		},
		{
			"id": "Sickle",
			"name": "镰刀",
			"description": "<p>原型是收割庄稼用的农具，这件单手武器的锋刃是一条大弧线，能够轻易地捕捉对手的肢体或甲胄。锋刃可以平顺、也可以呈锯齿状，某些战阵用的镰刀会在尖端附近两侧开刃，以便轻松钩进对手的血肉。</em></p>"
		},
		{
			"id": "Sickle-Sword",
			"name": "镰剑",
			"description": "<p>这柄异种武器广为依莉森那些没有巫术天赋的居民所喜爱，其奇特的刀刃在1/2到3英尺的地方有着数处弯曲。镰剑的柄部长且弯弧，刃部中间有着一个小的次要握把，使用者能通过空着的一只手以出乎意料的方式迅速扭转剑身。当使用者单手握持镰剑且另一只手空着时，他能通过一次迅捷动作以在本回合结束前的下一次攻击上获得+2加值。</p>"
		},
		{
			"id": "Sling",
			"name": "投石索",
			"description": "<p>投石索仅仅是与一对皮带相连的皮囊。你在使用投石索时能将力量修正添加到伤害检定，如同它是投掷武器。你能单手用它抛石，但不能单手装填弹丸。为投石索装填是一个需要用到两只手、并且会引发藉机攻击的移动动作。投石索发射弹丸。你能用投石索抛掷普通的石块，但石块不如专门的弹丸一样密度均匀、形状圆润。因此这种攻击要受到-1减值，而判断伤害时要将其视为武器型号小于实际一级。</em></p>"
		},
		{
			"id": "Sling Bullet",
			"name": "投石索弹丸",
			"description": "<p>买到的弹丸放在一个可以容纳10颗弹丸的皮质小袋里。</p>"
		},
		{
			"id": "Sling Glove",
			"name": "Sling Glove",
			"description": "<p>Loading a sling glove is a free action that does not provoke an attack of opportunity so long as you have a free hand.</p>\n<p>You take –4 penalty when throwing a stone at an adjacent target and cannot use the weapon to attack creatures in your space.</p>"
		},
		{
			"id": "Slow Burn Arrow",
			"name": "渐燃箭",
			"description": "<p>效果：如果你使用渐燃弹药击中了一个目标，它会正常造成伤害，但是在你下一回合开始时，这发弹药会爆炸起火并且对目标造成1D6点火焰伤害。</p>"
		},
		{
			"id": "Smoke Arrow",
			"name": "雾箭",
			"description": "<p>这只箭矢实际上是能够被弓发射的、削尖的烟雾棒。它在飞行时拖曳着烟尘，并在命中之处产生5英尺立方的烟雾。在伤害、射程等其他方面，雾箭的功能和普通箭矢别无二致。</p>"
		},
		{
			"id": "Smoke Sling Bullet",
			"name": "毒气弹丸",
			"description": "<p>毒气弹丸只需要一次成功的接触攻击来施放毒气。当这些弹丸撞击了一个目标，他们会爆发释放出充满有害气体的云雾（cloud），被击中的生物需要通过DC13的强韧豁免。如果豁免失败，目标会反胃2轮。</p>"
		},
		{
			"id": "Snag Net",
			"name": "钩网",
			"description": "<p>这个短而宽的捕网上覆盖着刺环以及活结。它的功能如同典型的捕网，不过它拥有绊摔特性。如果你已经用其缠住敌人并且同时握住拖绳，就能够在自己的回合使用绊摔战技检定对抗敌人以替代一次近战攻击；如果你成功了，就能绊摔敌人或对其造成1点穿刺伤害。若要在被钩网纠缠时施法，专注检定DC为“17+法术环级”。使用逃脱检定挣脱钩网的DC为22。</p>"
		},
		{
			"id": "Soakstone Sling Bullet",
			"name": "Soakstone Sling Bullet",
			"description": "<p>These bullets are actually made from a porous stone or heavy wood that absorbs liquids and shatters on impact.</p>\n<p>Soakstones are often used to deliver&nbsp;<a href=\"https://www.d20pfsrd.com/gamemastering/afflictions#TOC-Poison\">poison</a>&nbsp;or burning oil. A flask of oil completely saturates 10 soakstones. When ignited (a&nbsp;<a href=\"https://www.d20pfsrd.com/gamemastering/combat#TOC-Free-Actions\">free action</a>&nbsp;if fire is available), a burning, oil-soaked soakstone deals +1d2 fire damage and can ignite combustible materials (such as a thatched roof ). Allowing a soakstone to burn in a sling’s cup for more than 1d3 rounds gives the sling the&nbsp;<a href=\"https://www.d20pfsrd.com/gamemastering/conditions#TOC-Broken\">broken</a>&nbsp;condition.</p>"
		},
		{
			"id": "Softstone Sling Bullet",
			"name": "纤维石弹丸",
			"description": "<p>这些被弹性纤维包裹的石头被投石索发射时会造成非致命钝击伤害。</p>"
		},
		{
			"id": "Spear",
			"name": "矛",
			"description": "<p>矛长约5尺，可以用于投掷。</em></p>"
		},
		{
			"id": "Spear-Sling",
			"name": "Spear-Sling",
			"description": "<p><em>A spear-sling consists of a hollow tube with a loop of elastic material, such as rubber or sinew, attached to one end. The wielder draws a&nbsp;<a href=\"https://www.d20pfsrd.com/equipment/weapons/weapon-descriptions/harpoon\">harpoon</a>,&nbsp;<a href=\"https://www.d20pfsrd.com/equipment/weapons/weapon-descriptions/javelin\">javelin</a>,&nbsp;<a href=\"https://www.d20pfsrd.com/equipment/weapons/weapon-descriptions/shortspear\">shortspear</a>, or&nbsp;<a href=\"https://www.d20pfsrd.com/equipment/weapons/weapon-descriptions/spear\">spear</a>&nbsp;through the tube, pulling the loop taut. Releasing the loop propels the shaft forward like a bow does an arrow.</em></p>\n<p>A&nbsp;<a href=\"https://www.d20pfsrd.com/equipment/weapons/weapon-descriptions/harpoon\">harpoon</a>,&nbsp;<a href=\"https://www.d20pfsrd.com/equipment/weapons/weapon-descriptions/javelin\">javelin</a>,&nbsp;<a href=\"https://www.d20pfsrd.com/equipment/weapons/weapon-descriptions/shortspear\">shortspear</a>,&nbsp;<a href=\"https://www.d20pfsrd.com/equipment/weapons/weapon-descriptions/spear\">spear</a>, or other weapon shot from a spear-sling is treated as a projectile weapon instead of a thrown weapon, increasing its maximum range and allowing it to be used underwater. Using a spear-sling requires two hands.</p>\n<p>Loading a spear-sling is a&nbsp;<a href=\"https://www.d20pfsrd.com/gamemastering/combat#TOC-Standard-Actions\">standard action</a>&nbsp;(a&nbsp;<a href=\"https://www.d20pfsrd.com/gamemastering/combat#TOC-Move-Actions\">move action</a>&nbsp;if the wielder has the&nbsp;<a href=\"https://www.d20pfsrd.com/feats/combat-feats/rapid-reload-combat\">Rapid Reload</a>&nbsp;feat) that provokes&nbsp;<a href=\"https://www.d20pfsrd.com/gamemastering/combat#TOC-Attacks-of-Opportunity\">attacks of opportunity</a>.</p>\n<p>A spear-sling is made with a particular strength rating, like a&nbsp;<a href=\"https://www.d20pfsrd.com/equipment/weapons/weapon-descriptions/longbow-composite\">composite longbow</a>. Each point of&nbsp;<a href=\"https://www.d20pfsrd.com/basics-ability-scores/ability-scores#TOC-Strength-Str-\">Strength</a>&nbsp;bonus granted by the sling’s strength rating adds 50 gp to its cost. If you have a negative&nbsp;<a href=\"https://www.d20pfsrd.com/basics-ability-scores/ability-scores#TOC-Strength-Str-\">Strength</a>&nbsp;modifier, apply it to damage rolls when you use a spear-sling.</p>"
		},
		{
			"id": "Spiked Chain",
			"name": "刺链w",
			"description": "<p>刺链长约4尺，布满了凶残的钩刺。有些会有铁箍作为把手。你能通过“武器娴熟”专长在持用一把型号与你体型相符的刺链时，在攻击检定中以敏捷修正取代力量修正，即便它并不是轻型武器。</p>"
		},
		{
			"id": "Spiked Gauntlet",
			"name": "带刺铁手套",
			"description": "<p>这是一只在拳头部分装有锋刃、尖刺的金属或硬革手套，使得持用者能够用拳击来捅穿敌人。上表给出的价格和重量是单件带刺铁手套的数据。以带刺铁手套发动的攻击视为武装攻击【译注：即不会因攻击而引发藉机攻击】。带刺铁手套无法被卸武。</p>"
		},
		{
			"id": "Spiral Rapier",
			"name": "螺旋细剑",
			"description": "<p>这柄类似细剑有着比通常更厚的剑身，其被打造成螺旋形的刃部更是锋利异常。这种武器的剑身能有效地缠住敌寇的武器，使其在卸武或格挡上十分理想。若使用的螺旋细剑尺寸合适，使用者能通过武器娴熟专长以在攻击检定中改为使用敏捷修正，而非力量修正，即使其本身并非轻型武器也是如此。使用者无法通过双手握持螺旋细剑来把1-1/2倍力量修正加到伤害上。任何适用于细剑的效果同样适用于螺旋细剑。</p>"
		},
		{
			"id": "Splintercloud Arrow",
			"name": "破片箭",
			"description": "<p>效果：一旦成功命中目标，这发破片弹药会正常造成伤害，同时它会自行解体，对目标爆射出锋利的骨质碎片。这些碎片对目标以及任何邻接目标的生物造成1D3点穿刺伤害（反射DC18无效）</p>"
		},
		{
			"id": "Split-Blade Sword",
			"name": "Split-Blade Sword",
			"description": "<p>Patterned after the fiery blades masterfully wielded by some&nbsp;<a href=\"https://www.d20pfsrd.com/bestiary/monster-listings/outsiders/angel\">angels</a>, the split-blade sword is both a&nbsp;<a href=\"https://www.d20pfsrd.com/equipment---final/goods-and-services/toys-games-puzzles#TOC-Holy-Symbol\">holy symbol</a>&nbsp;and a difficult-yet-effective weapon. A split-blade sword resembles a large&nbsp;<a href=\"https://www.d20pfsrd.com/equipment---final/weapons/weapon-descriptions/scimitar\">scimitar</a>&nbsp;whose blade splits into two about two-thirds of the way toward the tip. If your&nbsp;<a href=\"https://www.d20pfsrd.com/basics-ability-scores/ability-scores#TOC-Dexterity-Dex-\">Dexterity</a>&nbsp;score is less than 15, you take a –2 penalty on attacks rolls with a split-blade sword, as you’re unable to maneuver its unusual blade.</p>"
		},
		{
			"id": "Spring Blade",
			"name": "Spring Blade",
			"description": "<p><em>This 4-inch blade is attached via a hinge to a wooden handle with a slot in the center, into which the blade can be folded. With a click of a switch, a spring thrusts the blade outward, where it locks into place until it is reset.</em></p>\n<p>Releasing the blade is a&nbsp;<a href=\"https://www.d20pfsrd.com/gamemastering/combat#TOC-Free-Actions\">free action</a>, and resetting it is a&nbsp;<a href=\"https://www.d20pfsrd.com/gamemastering/combat#TOC-Move-Actions\">move action</a>. The handle must be in your hand for the blade to be released; placing it in your hand requires the same type of action as drawing a weapon. A spring blade is easy to conceal: an observer must succeed at a DC 20&nbsp;<a href=\"https://www.d20pfsrd.com/skills/perception\">Perception</a>&nbsp;check to notice the blade hidden within the wooden handle, and you gain a +4 bonus on&nbsp;<a href=\"https://www.d20pfsrd.com/skills/sleight-of-hand\">Sleight of Hand</a>&nbsp;checks to conceal a spring blade on your body.</p>"
		},
		{
			"id": "Starknife",
			"name": "星刃",
			"description": "<p>在中央的圆环外，四支向尖端逐渐收拢的锋刃构成了这件形似指南针或玫瑰的武器。【译者吐槽：玫瑰花是五出的我读书少你不要骗我。】通过抓握中央圆环处的十字把手，持用者能将它变成一件致命兵刃。此外，若是抓握住外环本身，星刃的轻巧与符合空气动力学的设计又使它能够作为投掷武器，类似飞轮般地进行短距掷击。【译者吐槽：这是不是说也要过反射不然插自己脑门啊！】</p>"
		},
		{
			"id": "Steel Terbutje",
			"name": "Steel Terbutje",
			"description": "<p><em>This Stone Age weapon, also called a macuahuitl, is made from a length of tempered wood. It has bits of shark teeth, obsidian, glass, or similar materials studded all along its length.</em></p>"
		},
		{
			"id": "Stingchuck",
			"name": "Stingchuck",
			"description": "<p><em>A stingchuck is a foul bag made of a humanoid&rsquo;s head with the brain removed and the skull heavily scored so that it bursts open when thrown.</em></p>\n<p>Normally filled with biting vermin, a stingchuck acts as a splash weapon. When it hits, the vermin bite and sting the target, dealing 1d6 points of damage and forcing a DC 11&nbsp;<a href=\"https://www.d20pfsrd.com/gamemastering/combat/#TOC-Fortitude\">Fortitude</a>&nbsp;save to avoid being nauseated for 1d3 rounds. Each round a creature remains nauseated by a stingchuck, it takes 1 additional point of damage from the biting vermin. All creatures within the splash effect take 1 point of damage from the vermin but do not risk being nauseated.</p>"
		},
		{
			"id": "Stitched Sling",
			"name": "Stitched Sling",
			"description": "<p><em>Technically not a unique kind of weapon, a stitched sling is a sling, staff sling, or double sling whose cup is sewn closed around the ammunition, creating a weak sort of light flail.</em></p>\n<p>The ammunition sewn into the sling is irrelevant to the type and amount of damage it causes. A stitched sling cannot be used to fire ammunition unless the thread or cord holding the cup closed is cut open (a&nbsp;<a href=\"https://www.d20pfsrd.com/gamemastering/combat#TOC-Full-Round-Actions\">full-round action</a>&nbsp;that provokes&nbsp;<a href=\"https://www.d20pfsrd.com/gamemastering/combat#TOC-Attacks-of-Opportunity\">attacks of opportunity</a>).</p>"
		},
		{
			"id": "Stonebow",
			"name": "Stonebow",
			"description": "<p><em>A stonebow, or bullet crossbow, resembles a&nbsp;<a href=\"https://www.d20pfsrd.com/equipment/weapons/weapon-descriptions/crossbow-light\">light crossbow</a>&nbsp;except for the distinct U-shaped bend in the stock.</em></p>\n<p>Instead of bolts, the stonebow shoots&nbsp;<a href=\"https://www.d20pfsrd.com/equipment/weapons/weapon-descriptions/sling\">sling</a>&nbsp;bullets. The bow has two strings with a leather pocket between them to hold the bullet.</p>\n<p><strong>Loading</strong>:&nbsp;Loading a stonebow is a&nbsp;<a href=\"https://www.d20pfsrd.com/gamemastering/combat#TOC-Move-Actions\">move action</a>&nbsp;(a&nbsp;<a href=\"https://www.d20pfsrd.com/gamemastering/combat#TOC-Free-Actions\">free action</a>&nbsp;if you have the&nbsp;<a href=\"https://www.d20pfsrd.com/feats/combat-feats/rapid-reload-combat\">Rapid Reload</a>&nbsp;feat) that provokes&nbsp;<a href=\"https://www.d20pfsrd.com/gamemastering/combat#TOC-Attacks-of-Opportunity\">attacks of opportunity</a>.</p>\n<p><strong>Firing</strong>:&nbsp;You can shoot, but not load, a stonebow with one hand, but doing so imposes a &ndash;2 penalty on your&nbsp;<a href=\"https://www.d20pfsrd.com/gamemastering/combat#TOC-Attack-Roll\">attack rolls</a>. You can shoot a stonebow with each hand, but you take a penalty on attack rolls as if attacking with two light weapons. This penalty is cumulative with the penalty for firing one-handed.</p>\n<p>You can shoot ordinary stones with a stonebow, but stones aren&rsquo;t as dense or as round as bullets. When using stones, you take a &ndash;1 penalty on attack rolls and deal damage as if the weapon were designed for a creature one size category smaller than you.</p>"
		},
		{
			"id": "Stormshaft Javelin",
			"name": "雷鸣标枪",
			"description": "<p>这种一次性的标枪在其枪头后装载有一枚暴雷石。如果成功地以这种标枪命中目标，目标生物在如常受到正常伤害的同时，暴雷石的效果也会以其为中心产生。如果使用者失手了，则投骰已决定其落地位置（采用与投炸武器失手的相同规则）。暴雷石的效果将会以落地位置的方格为中心产生。</p>"
		},
		{
			"id": "Switchblade Knife",
			"name": "Switchblade Knife",
			"description": "<p>This weapon is treated as a dagger.</p>\n<p>This knife can be designed to look like another type of object (a DC 15 Perception check reveals the deception). If held in your hand, you can activate it as a free action.</p>"
		},
		{
			"id": "Switchscythe",
			"name": "摺叠巨镰",
			"description": "<p>这种巨镰其装载有机簧的刃部能摺叠并收纳入武器的柄部。展开摺叠巨镰的刃部是一个迅捷动作，将其重新收纳起来则需要一个标准动作。使用者能通过唬骗或者巧手技能来把收纳状态下摺叠巨镰隐藏起来，视作隐藏武器。伪装这种装置需要1分钟，伪装后会为此类相关检定提供+5加值。一旦武器展开伪装则宣告失败，需要将其再次收纳才能重新隐藏。任何适用于巨镰的效果同样适用于摺叠巨镰。</p>"
		},
		{
			"id": "Sword Cane",
			"name": "杖剑",
			"description": "<p>这把细身剑被放置在作为剑鞘和伪装的木柄里。你能以迅捷动作拔剑（若拥有“即时备战”专长则为自由动作）。观察者必须通过DC20的察觉检定才能发现杖剑是一件武器，而非寻常的手杖；若观察者能够把弄杖剑，那么DC降至10。你能通过“武器娴熟”专长在持用一把型号与你体型相符的杖剑时，在攻击检定中以敏捷修正取代力量修正，即便它并不是轻型武器。你无法通过双手持用杖剑的方式来将力量修正的1.5倍加至伤害检定。</p>"
		},
		{
			"id": "Swordbreaker Dagger",
			"name": "折剑匕首",
			"description": "<p>你能用这把匕首背侧的豁口咬住敌人的剑刃，并将折剑匕首当作扳手来卸除或破坏对方的武器。若你擅长此武器，持用它时对刃型武器的卸武和破武战技检定+4。【译注：刃型武器即bladed weapons，应该指战士武器组中归为轻刃和重刃类的武器。】</p>"
		},
		{
			"id": "Syringe Spear",
			"name": "Syringe Spear",
			"description": "<p>A successful hit with the spear injects the liquid contents of the container (typically poison) into the target. Refilling a syringe spear takes 1 minute.</p>"
		},
		{
			"id": "Tailblade",
			"name": "Tailblade",
			"description": "<p><em>A tailblade is a small, sharp knife designed to be strapped to the tip of a wielder’s tail.</em></p>\n<p>A ratfolk wielding a tailblade can make a tail attack, adding its&nbsp;<a href=\"https://www.d20pfsrd.com/classes/core-classes/cleric/domains/paizo-domains/strength-domain\">Strength</a>&nbsp;modifier to the tailblade’s damage.</p>\n<p>Ratfolk are considered proficient with such attacks and can apply feats or effects appropriate to&nbsp;<a href=\"https://www.d20pfsrd.com/bestiary/rules-for-monsters/universal-monster-rules#TOC-Natural-Attacks\">natural attacks</a>&nbsp;to tail attacks made with a tailblade. If used as part of a full attack action, attacks with a tailblade are considered secondary attacks.</p>\n<p>It takes a&nbsp;<a href=\"https://www.d20pfsrd.com/gamemastering/combat#TOC-Full-Round-Actions\">full-round action</a>&nbsp;to strap on or remove a tailblade. The wearer can loosely attach the tailblade (without strapping it securely in place) as a&nbsp;<a href=\"https://www.d20pfsrd.com/gamemastering/combat#TOC-Move-Actions\">move action</a>, but using a loosely attached tailblade gives the wielder a –4 penalty on all&nbsp;<a href=\"https://www.d20pfsrd.com/gamemastering/combat#TOC-Attack-Roll\">attack rolls</a>&nbsp;made with the weapon, and other creatures get a +4 bonus on&nbsp;<a href=\"https://www.d20pfsrd.com/gamemastering/combat#TOC-Disarm\">disarm</a>&nbsp;<a href=\"https://www.d20pfsrd.com/gamemastering/combat#TOC-Combat-Maneuvers\">combat maneuver</a>&nbsp;checks to&nbsp;<a href=\"https://www.d20pfsrd.com/gamemastering/combat#TOC-Disarm\">disarm</a>&nbsp;the tailblade.</p>"
		},
		{
			"id": "Tangleshot Arrow",
			"name": "纠缠箭",
			"description": "<p>效果：使用纠缠弹药射击是一次接触攻击；弹药不会造成伤害，但是目标会被炼金粘合剂泼溅。这个效果类似于绊足包，但是有以下调整：反射DC10，力量DC12进行破坏，受到10点挥砍伤害才会被砍断，进行施法时需要进行专注检定DC10。纠缠弹药会因为它的重量在攻击检定中承受-1罚值。</p>"
		},
		{
			"id": "Terbutje",
			"name": "石刃剑",
			"description": "<p>这件石器时代的武器又被称为鲨齿剑，是用一段烘烤退火后的木料制成的。它的全身都镶嵌有黑曜石、琉璃、兽牙或类似材料。</p>"
		},
		{
			"id": "Thistle Arrow",
			"name": "蓟花箭",
			"description": "<p>These arrows are a specialty of the Ekujae shamans, who craft the arrowheads out of the thistles of a toxic plant that most creatures find highly caustic. 这支由一种有毒植物的花制成的箭，命中后会将该次伤害作为流血效果持续1D6轮。Creatures immune to poison are immune to this extra damage. A creature can remove an embedded thistle arrow as a move action without provoking attacks of opportunity, but doing so deals an additional 1d3 points of damage as the thorny barbs are pulled free. A DC 12 Heal check (made as a standard action) can pull free a thistle arrow’s head without dealing any additional damage. A single thistle arrow costs 1 gp.</p>"
		},
		{
			"id": "Thorn Bow",
			"name": "Thorn Bow",
			"description": "<p><em>This polished rosewood bow is studded with thorns and tiny flowers.</em></p>\n<p>Treat this weapon as a shortbow.</p>"
		},
		{
			"id": "Thorn Bracer",
			"name": "Thorn Bracer",
			"description": "<p>A thorn bracer can be used to make an offhand attack if you aren’t wielding a weapon or shield in that hand. You can attack with these bracers even while holding objects in your hands.</p>\n<p>When attacking with thorn bracers, you lose any shield bonus to AC gained from a readied shield until your next action.</p>"
		},
		{
			"id": "Throwing Arrow",
			"name": "掷箭",
			"description": "<p>因为太长，掷箭无法用于弓，因此它的尾部也没有弓弦槽。取而代之的是，在箭羽前端有一个V型槽可以用来装载掷箭索。若不使用掷箭索，则将掷箭视为飞镖。</p>"
		},
		{
			"id": "Throwing Arrow Cord",
			"name": "Throwing Arrow Cord",
			"description": "<p><em>This simple fiber or leather cord has a knot at either end. One end is wound once around the notch of a throwing arrow. The cord runs taut along the shaft to the front of the arrow, where you hold the arrow to throw. The remainder of the cord wraps around your hand. The cord dramatically increases the throwing arrow’s range.</em></p>\n<p>Attaching the cord to a&nbsp;<a href=\"https://www.d20pfsrd.com/equipment/weapons/weapon-descriptions/ammunition/ammunition-bow-arrows-common/arrow-throwing/\">throwing arrow</a>&nbsp;is a&nbsp;<a href=\"https://www.d20pfsrd.com/gamemastering/combat#TOC-Move-Actions\">move action</a>&nbsp;that requires two hands and provokes&nbsp;<a href=\"https://www.d20pfsrd.com/gamemastering/combat#TOC-Attacks-of-Opportunity\">attacks of opportunity</a>. The&nbsp;<a href=\"https://www.d20pfsrd.com/feats/combat-feats/rapid-reload-combat\">Rapid Reload</a>&nbsp;feat can be taken for throwing arrow cords, allowing you to load a throwing arrow as a&nbsp;<a href=\"https://www.d20pfsrd.com/gamemastering/combat#TOC-Free-Actions\">free action</a>.</p>"
		},
		{
			"id": "Throwing Axe",
			"name": "飞斧",
			"description": "<p>这把单手斧较小，完美的配重平衡使它适于投掷，同时也能作为近战武器。飞斧有很多名字，包括抛斧、投斧等等。使用飞斧时常紧握把手、高举过肩，在空中回旋一圈后咬进目标的身体。</p>"
		},
		{
			"id": "Throwing Shield",
			"name": "飞盾",
			"description": "<p>这面盾牌被设计用来投掷，因此其握把的设计允许你通过一个自由动作卸下并投掷出去。塔盾无法被作为飞盾。盾牌的AC增强加值和盾刺都无法作用于你的攻击和伤害检定。飞盾无法被卸武。</p>"
		},
		{
			"id": "Tongi",
			"name": "Tongi",
			"description": "<p><em>This rare weapon resembles a&nbsp;<a href=\"https://www.d20pfsrd.com/equipment/weapons/weapon-descriptions/axe-battle\">battleaxe</a>&nbsp;with wedges cut out of the head, presenting four sharp points that splay from the handle rather than a single convex blade.</em></p>"
		},
		{
			"id": "Totem Spear",
			"name": "Totem Spear",
			"description": "<p>If the user is trained in the spear’s use, a totem spear can be used by bards to create bardic music effects using Perform (wind instrument). The spear itself has a strong, flexible shaft, and in the hands of one trained in its use, grants a +2 circumstance bonus on&nbsp;<a href=\"https://www.d20pfsrd.com/skills/acrobatics\">Acrobatics</a>&nbsp;checks. The spear’s relatively wide head allows it to be used as a slashing weapon, swung side to side, or as a piercing weapon in a more traditional spear-fighting technique.</p>"
		},
		{
			"id": "Travelling Kettle",
			"name": "Travelling Kettle",
			"description": "<p>These small tea kettles are made with clamping lids and heavily reinforced handles, allowing them to be swung like a&nbsp;<a href=\"https://www.d20pfsrd.com/equipment---final/weapons/weapon-descriptions/club\">club</a>. A traveling kettle with boiling water inside deals an additional 1 point of fire damage on a hit. Boiling water cools to a non-damaging temperature after 5 minutes.</p>"
		},
		{
			"id": "Tri-Bladed Katar",
			"name": "Tri-Bladed Katar",
			"description": "<p><em>Where most punching daggers boast a single thick blade, the tri-bladed katar features a fan of three splayed razor edges.</em></p>\n<p>Any effects that apply to a&nbsp;<a href=\"https://www.d20pfsrd.com/equipment/weapons/weapon-descriptions/dagger-punching\">punching dagger</a>&nbsp;also apply to a tri-bladed katar.</p>"
		},
		{
			"id": "Trident",
			"name": "三叉戟",
			"description": "<p>三叉戟在长约4尺的握柄前段装有三支金属尖刺。三叉戟可以用于投掷。</p>"
		},
		{
			"id": "Trip Arrow",
			"name": "绊足箭",
			"description": "<p>效果：如果你使用绊足弹药击中目标，这发弹药不会造成伤害但是对目标施展一次摔拌战技检定，并CMB获得+5加值。在决定CMB或体型罚值时，这种弹药被视为使用这种弹药的生物的体型。</p>"
		},
		{
			"id": "Two-Bladed Sword",
			"name": "双刃剑",
			"description": "<p>双刃剑是一件双头武器——从短柄中央向两端伸出孪生的剑刃，允许持用者发动优雅而致命的连续技。</p>"
		},
		{
			"id": "Unarmed Strike",
			"name": "徒手打击",
			"description": "<p>徒手打击是诸如拳击或脚踢等攻击者未使用武器而做出的攻击。中型体型的角色的徒手打击造成1d3点非致命伤害，小型体型则为1d2点。一名武僧或任何拥有“精通徒手打击”专长的角色可以根据自己的选择，以徒手打击造成致命或非致命伤害。徒手打击的伤害在获得加值的效果或状况下，可以视为武器伤害。徒手打击永远被视为轻武器。因此你能通过“武器娴熟”专长在徒手打击的攻击检定中，以敏捷修正取代力量修正。徒手打击不被视为天生武器。徒手打击无法被卸武【译注：否则细思恐极】。</p>"
		},
		{
			"id": "War Razor",
			"name": "War Razor",
			"description": "<p><em>You gain a +2 bonus on&nbsp;<a href=\"https://www.d20pfsrd.com/skills/sleight-of-hand\">Sleight of Hand</a>&nbsp;checks made to conceal the weapon on your body</em></p>"
		},
		{
			"id": "Warhammer",
			"name": "战锤",
			"description": "<p>这件武器包括木制的握柄和一个沉重的金属锤头。锤头可能为单侧（像是木工锤）或双侧（像是长柄大锤）。握柄的长度足够你单手或是双手持用。尽管沉重且难以挥舞，战锤是造成效果拔群一击、粉碎铠甲和血肉的理想武器。</p>"
		},
		{
			"id": "Waveblade",
			"name": "涛澜刀",
			"description": "<p>这种武器因其尾刺般的独特形状也以“蝎尾”闻名，其短小，双弧型的刀身柄部被一个弓形护指所取代。使用者在对抗意图卸除手中波澜刃的卸武CMD上获得+2加值。</p>"
		},
		{
			"id": "Weighted Spear",
			"name": "Weighted Spear",
			"description": "<p>This pole has a spear head at one end and a mace head at the other. It can be wielded like a standard&nbsp;<a href=\"https://www.d20pfsrd.com/equipment/weapons/weapon-descriptions/spear\">spear</a>&nbsp;(though it isn’t balanced for throwing), or it can be used as a double weapon, alternately thrusting and bashing.</p>\n<p><span style=\"color: #191813; font-size: 13px;\">If used for bashing, it deals 1d6 bludgeoning damage instead, and has a critical multiplier of x2.</span></p>"
		},
		{
			"id": "Whip",
			"name": "长鞭",
			"description": "<p>长鞭无法对任何AC护甲加值+1以上、或天生护甲+3以上的生物造成伤害。长鞭被视为触及范围15尺的近战长兵器，不过你无法威胁能攻击到的区域。此外与多数长兵器不同的是，你能用它对抗触及范围内任何位置的敌人（包括邻接的敌人）。如同使用远程武器，使用长鞭将会引发藉机攻击。你能通过“武器娴熟”专长在持用一把型号与你体型相符的长鞭时，在攻击检定中以敏捷修正取代力量修正，即便它并不是轻型武器。你无法通过双手持用长鞭的方式来将力量修正的1.5倍加至伤害检定。</p>"
		},
		{
			"id": "Whistling Arrow",
			"name": "响箭",
			"description": "<p>响箭具有特殊的箭身穿孔和羽翎，它们可以在被射出后发出极其尖锐而响亮的呼啸声（足以影响半径500尺的范围）。响箭以20支装一壶出售。</p>"
		},
		{
			"id": "Wooden Stake",
			"name": "木桩",
			"description": "<p>这件近战格斗武器仅是一块削尖了的木头。它如同钢刺般造成武器伤害。.</p>"
		},
		{
			"id": "Wrist Launcher",
			"name": "Wrist Launcher",
			"description": "<p><em>This slender tube is strapped to one forearm and designed to be concealed beneath the sleeve, where the wielder can fire a featherweight&nbsp;<a href=\"https://www.d20pfsrd.com/equipment/weapons/weapon-descriptions/ammunition/ammunition-thrown-darts\">dart</a>&nbsp;with a twist of the wrist.</em></p>\n<p>The launcher functions by means of a tightly compressed spring, and must be reloaded and re-cocked with a separate ramrod as a&nbsp;<a href=\"https://www.d20pfsrd.com/gamemastering/combat#TOC-Full-Round-Actions\">full-round action</a>.</p>\n<p>After firing, the wearer can attempt a&nbsp;<a href=\"https://www.d20pfsrd.com/skills/sleight-of-hand\">Sleight of Hand</a>&nbsp;check opposed by opponents’&nbsp;<a href=\"https://www.d20pfsrd.com/skills/perception\">Perception</a>&nbsp;checks to keep the wrist launcher concealed. If you are proficient with hand crossbows, you are also proficient with wrist launchers.</p>"
		}
	]
}
